// 28
//== A Day of Very Low Probability
== Розділ 1. День вкрай низької ймовірності

// 29
//Disclaimer: J. K. Rowling owns Harry Potter, and no one owns the methods of
//rationality.
Відмова від відповідальності: Права на Гаррі Поттера належать Дж. К. Ролінґ,
права на методи раціональності не належать нікому.

***

// 30
//__Beneath the moonlight glints a tiny fragment of silver, a fraction of a
//line…__
//kabakchei: 114:19216
__Місячне сяйво на якусь мить вихоплює з темряви тонкий поблиск срібла, частинку лінії...__

// 31
//__(black robes, falling)__
//kabakchei: 114:19228
__(падають чорні мантії)__

// 32
//__…blood spills out in litres, and someone screams a word.__
__...кров ллється літрами, хтось викрикує слово.__


***

// 33
//Every inch of wall space is covered by a bookcase. Each bookcase has six
//shelves, going almost to the ceiling. Some bookshelves are stacked to the brim
//with hardback books: science, maths, history, and everything else. Other
//shelves have two layers of paperback science fiction, with the back layer of
//books propped up on old tissue boxes or lengths of wood, so that you can see
//the back layer of books above the books in front. And it still isn’t enough.
//Books are overflowing onto the tables and the sofas and making little heaps
//under the windows.
// hedrok: копія у 036:7175, крім: hardback -> hardcover; maths -> math; lengths
// of wood -> two-by-fours
Усі стіни до сантиметра заставлені книжковими шафами. Вони мають по шість полиць і
майже сягають стелі. Деякі полиці вщерть заповнені книжками у твердій палітурці:
фундаментальні науки, математика, історія тощо. На інших вишикувалась у два ряди
наукова фантастика в мʼякій обкладинці. Під задні підкладено старі коробки з-під
серветок та дошки, щоб їх також можна було роздивитися. Але й цього було замало.
Книжки заполонили столи й дивани, книжки лежать невеликими купами попід вікнами.

// 34
//This is the living-room of the house occupied by the eminent Professor Michael
//Verres-Evans, and his wife, Mrs. Petunia Evans-Verres, and their adopted son,
//Harry James Potter-Evans-Verres.
Це вітальня дому, де мешкає видатний професор Майкл Веррес-Еванс, його дружина
// @ adopted -> названий
Петунія Еванс-Веррес, а також їхній названий син -- Гаррі Джеймс Поттер-Еванс-Веррес.

// 35
//There is a letter lying on the living-room table, and an unstamped envelope of
//yellowish parchment, addressed to __Mr. H. Potter__ in emerald-green ink.
Тут на столі лежать лист та непроштампований конверт із жовтуватого пергаменту,
смарагдово-зелений напис на якому свідчить, що він адресований "`__містерові Г. Поттеру__`".

// 36
//The Professor and his wife are speaking sharply at each other, but they are not
//shouting. The Professor considers shouting to be uncivilised.
Подружжя розмовляє різко, проте не кричить. Професор вважає, що крики --
це варварство.

// 37
//“You’re joking,” Michael said to Petunia. His tone indicated that he was very
//much afraid that she was serious.
-- Ти жартуєш, -- сказав Майкл. Судячи з його тону, він дуже боїться,
що дружина говорить цілком серйозно.

// 38
//“My sister was a witch,” Petunia repeated. She looked frightened, but stood her
//ground. “Her husband was a wizard.”
-- Моя сестра була відьмою, -- повторила Петунія. Вона мала наляканий вигляд,
проте не відступала. -- А її чоловік був чарівником.

// 39
//“This is absurd!” Michael said sharply. “They were at our wedding - they
//visited for Christmas -”
-- Це ж абсурд! -- різко вигукнув Майкл. -- Вони були на нашому весіллі,
вони гостювали в нас на Різдво...

// 40
//“I told them you weren’t to know,” Petunia whispered. “But it’s true. I’ve seen
//things -”
-- Я сказала їм, що тобі не варто знати, -- прошепотіла Петунія. -- Але це правда.
Я бачила речі...

// 41
//The Professor rolled his eyes. “Dear, I understand that you’re not familiar
//with the sceptical literature. You may not realise how easy it is for a trained
//magician to fake the seemingly impossible. Remember how I taught Harry to bend
//spoons? If it seemed like they could always guess what you were thinking,
//that’s called cold reading -”
-- Люба, -- закотив очі професор, -- я розумію, що ти не знайома зі скептичною
літературою. Ти й не усвідомлюєш, наскільки легко тренований фокусник може вдати
навіть щось, здавалось би, неможливе. Памʼятаєш, як я вчив Гаррі гнути ложки? Якщо
в тебе складалося враження, ніби вони вгадували твої думки, то це називається
холодне читання.

// 42
//“It wasn’t bending spoons -”
-- Вони не гнули ложки.

// 43
//“What was it, then?”
-- Що ж вони робили?

// 44
//Petunia bit her lip. “I can’t just tell you. You’ll think I’m -” She swallowed.
//“Listen. Michael. I wasn’t - always like this -” She gestured at herself, as
//though to indicate her lithe form. “Lily did this. Because I - because I
//__begged__ her. For years, I begged her. Lily had __always__ been
//prettier than me, and I’d… been mean to her, because of that, and then she got
//__magic, __can you imagine how I felt? And I __begged__ her to use
//some of that magic on me so that I could be pretty too, even if I couldn’t have
//her magic, at least I could be pretty.”
-- Я не можу просто сказати тобі, -- Петунія закусила губу. -- Ти подумаєш, що я...
-- вона ковтнула слину. -- Послухай, Майкле. Я не завжди була... такою, -- вона
вказала жестом на свою витончену фігуру. -- Це зробила Лілі.
Бо... бо я __благала__ її. Благала роками. Лілі __завжди__ була красивішою
за мене, і я... жахливо до неї ставилася через це, а потім вона ще й отримала
__магію__ -- можеш собі уявити, як я почувалася? І я __благала__ її застосувати
крихту свого дару на мені, щоб зробити мене вродливішою. Нехай я не могла володіти
її магією, я могла би принаймні бути вродливою.

// 45
//Tears were gathering in Petunia’s eyes.
Очі Петунії наповнилися слізьми.

// 46
//“And Lily would tell me no, and make up the most ridiculous excuses, like the
//world would end if she were nice to her sister, or a centaur told her not to -
//the most ridiculous things, and I hated her for it. And when I had just
//graduated from university, I was going out with this boy, Vernon Dursley, he
//was fat and he was the only boy who would talk to me. And he said he wanted
//children, and that his first son would be named Dudley. And I thought to
//myself, __what kind of parent names their child Dudley Dursley?__ It was
//like I saw my whole future life stretching out in front of me, and I couldn’t
//stand it. And I wrote to my sister and told her that if she didn’t help me I’d
//rather just -”
-- А Лілі завжди відмовлялася, вигадувала найбезґлуздіші виправдання, наприклад,
що настане кінець світу, якщо вона зробить щось хороше для своєї сестри, або що
кентавр сказав їй цього не робити -- нісенітниці, і я ненавиділа її за це. І коли
я тільки-но закінчила університет, то зустрічалася з тим гладки{stress}м хлопцем,
Верноном Дурслі, він був єдиним хлопцем, який зі мною розмовляв. І він казав, що
хоче дітей, а першого сина назве Дадлі. І тоді я подумала, __ну що за
батьки називають свою дитину Дадлі Дурслі?__ Переді мною наче промайнуло все моє
майбутнє життя, і я не могла цього витримати. Я написала своїй сестрі, що якщо
вона мені не допоможе, я краще просто...

// 47
//Petunia stopped.
Петунія затнулася.

// 48
//“Anyway,” Petunia said, her voice small, “she gave in. She told me it was
//dangerous, and I said I didn’t care any more, and I drank this potion and I was
//sick for weeks, but when I got better my skin cleared up and I finally filled
//out and… I was beautiful, people were __nice__ to me,” her voice broke,
//“and after that I couldn’t hate my sister any more, especially when I learned
//what her magic brought her in the end -”
-- Хай там як, -- тихо промовила Петунія, -- вона здалася. Лілі попередила, що це
небезпечно, але я відповіла, що мені вже байдуже. Я випила зілля й нездужала
протягом кількох тижнів, проте коли мені поліпшало, моя шкіра очистилася, а тіло
нарешті набуло форм... Я була красивою, і люди стали __приязними__ до мене, --
її голос урвався, -- і після цього я вже не могла ненавидіти свою сестру,
особливо коли дізналася, до чого зрештою призвела її магія...

// 49
//“Darling,” Michael said gently, “you got sick, you gained some weight while
//resting in bed, and your skin cleared up on its own. Or being sick made you
//change your diet -”
-- Серденько, -- лагідно сказав Майкл, -- ти захворіла, і доки відпочивала в
ліжку, то набрала ваги, а шкіра очистилася сама собою. Або ж хвороба змусила
тебе змінити харчування...

// 50
//“She was a witch,” Petunia repeated. “I saw it.”
-- Вона була відьмою, -- повторила Петунія. -- Я бачила.

// 51
//“Petunia,” Michael said. The annoyance was creeping into his voice. “You
//__know__ that can’t be true. Do I really have to explain why?”
-- Петуніє, -- у голосі Майкла чулося роздратування, -- ти __знаєш__,
що це не може бути правдою. Невже я справді маю пояснювати чому?

// 52
//Petunia wrung her hands. She seemed to be on the verge of tears. “My love, I
//know I can’t win arguments with you, but please, you have to trust me on this
//-”
Петунія почала заламувати руки. Видавалося, що вона ось-ось розплачеться.

// @win arguments with you -> переконати тебе
-- Кохання моє, я знаю, що не можу переконати тебе, проте, будь ласка, ти маєш
повірити мені...

// 53
//“__Dad! Mum!__”
-- __Тату! Мамо!__

// 54
//The two of them stopped and looked at Harry as though they’d forgotten there
//was a third person in the room.
Вони обидвоє замовкли й подивилися на Гаррі так, ніби щойно згадали, що в
кімнаті є хтось третій.

// 55
//Harry took a deep breath. “Mum, __your__ parents didn’t have magic, did
//they?”
Гаррі глибоко вдихнув.

-- Мамо, __твої__ батьки не володіли магією, чи не так?

// 56
//“No,” Petunia said, looking puzzled.
-- Ні, -- спантеличено відповіла Петунія.

// 57
//“Then no one in your family knew about magic when Lily got her letter. How did
//__they__ get convinced?”
-- Отже, ніхто з твоєї родини не знав про магію, доки Лілі не отримала свого листа.
Чому __вони__ повірили?

// 58
//“Ah…” Petunia said. “They didn’t just send a letter. They sent a professor from
//Hogwarts. He -” Petunia’s eyes flicked to Michael. “He showed us some magic.”
-- Ах... -- сказала Петунія. -- Того разу не обмежились самим тільки листом. Вони
прислали професора з Гоґвортсу. Він... -- Петунія кинула оком на Майкла. -- Він
показав нам деякі чари.

// 59
//“Then you don’t have to fight over this,” Harry said firmly. Hoping against
//hope that this time, just this once, they would listen to him. “If it’s true,
//we can just get a Hogwarts professor here and see the magic for ourselves, and
//Dad will admit that it’s true. And if not, then Mum will admit that it’s false.
//That’s what the experimental method is for, so that we don’t have to resolve
//things just by arguing.”
-- Тоді вам взагалі не варто через це сперечатися, -- твердо заявив Гаррі, без
надії сподіваючись, що бодай цього одного-єдиного разу вони до нього прислухаються.
-- Якщо це правда, ми можемо просто викликати гоґвортського професора сюди та побачити
магію на власні очі; в цьому випадку тато визнає, що вона існує. В іншому ж --
мама визнає, що помиляється. Для цього й потрібен експериментальний метод:
щоби нам не доводилося розвʼязувати проблеми самими лише суперечками.

// 60
//The Professor turned and looked down at him, dismissive as usual. “Oh, come
//now, Harry. Really, __magic?__ I thought __you’d__ know better than
//to take this seriously, son, even if you’re only ten. Magic is just about the
//most unscientific thing there is!”
Професор розвернувся в його сторону та глянув на нього вниз зі звичною вже зверхністю.

-- Ой, Гаррі, облиш. Справді, __магія?__ Я сподівався, що хоча б __ти__ не
повіриш у це, синку, нехай тобі лише десять років. Магія -- це ж
найменш наукове, що тільки може існувати!

// 61
//Harry’s mouth twisted bitterly. He was treated well, probably better than most
//genetic fathers treated their own children. Harry had been sent to the best
//primary schools - and when that didn’t work out, he was provided with tutors
//from the endless pool of starving students. Always Harry had been encouraged to
//study whatever caught his attention, bought all the books that caught his
//fancy, sponsored in whatever maths or science competitions he entered. He was
//given anything reasonable that he wanted, except, maybe, the slightest shred of
//respect. A Doctor teaching biochemistry at Oxford could hardly be expected to
//listen to the advice of a little boy. You would listen to Show Interest, of
//course; that’s what a Good Parent would do, and so, if you conceived of
//yourself as a Good Parent, you would do it. But take a ten-year-old
//__seriously?__ Hardly.
Гаррі гірко скривився. Батько ставився до нього добре, напевно краще, ніж більшість
генетичних татусів ставляться до власних дітей. Гаррі відправляли були до
найкращих початкових шкіл, а коли з ними не склалося, то знайшли репетиторів серед
нескінченної юрби голодних студентів. Гаррі завжди заохочували вивчати все, що його
цікавило, купували всі книжки, що привертали його увагу, покривали всі витрати на його
участь у змаганнях із математики та інших наук. У розумних межах йому давали все,
чого б він тільки не забажав, окрім, можливо, бодай дещиці поваги. Даремно очікувати,
що доктор наук, який викладає біохімію в Оксфорді, з якогось дива дослухається до
порад маленького хлопчика. Він, звісно ж, вислухає, щоб "`продемонструвати
зацікавленість`" -- бо саме так вчинив би "`гарний батько`", і це саме те, що ви
зробили б, якби вважали себе "`гарними батьками`". Проте сприймати десятирічну
дитину __всерйоз__? Навряд.

// 62
//Sometimes Harry wanted to scream at his father.
Інколи Гаррі хотілося кричати на свого батька.

// 63
//“Mum,” Harry said. “If you want to win this argument with Dad, look in chapter
//two of the first book of the Feynman Lectures on Physics. There’s a quote there
//about how philosophers say a great deal about what science absolutely requires,
//and it is all wrong, because the only rule in science is that the final arbiter
//is observation - that you just have to look at the world and report what you
//see. Um… off the top of my head I can’t think of where to find something about
//how it’s an ideal of science to settle things by experiment instead of
//arguments -”
-- Мамо, -- сказав Гаррі, -- якщо ти хочеш перемогти в цій суперечці з татом, розгорни
другий розділ першого тому "`Фейнманівських лекцій з фізики`". Там згадується, як
філософи розповідають про речі, що їх начебто неодмінно потребує наука, і як насправді
усі вони помиляються: адже єдине правило науки полягає в тому, що верховним суддею є
спостереження -- треба просто дивитися на світ і доповідати про побачене. Гм...
Не можу одразу пригадати, де можна знайти щось про те, що ідеалом для науки є доведення
дослідом, а не суперечками...

// 64
//His mother looked down at him and smiled. “Thank you, Harry. But -” her head
//rose back up to stare at her husband. “I don’t want to win an argument with
//your father. I want my husband to, to listen to his wife who loves him, and
//trust her just this once -”
Мати подивилася на нього вниз і всміхнулася.

-- Дякую, Гаррі, але... -- вона повернула голову до чоловіка, -- я не хочу
перемагати в суперечці з твоїм батьком. Я хочу, щоб мій чоловік... послухав свою
дружину, яка кохає його, і довірився їй хоча б цього єдиного разу...

// 65
//Harry closed his eyes briefly. __Hopeless.__ Both of his parents were just
//hopeless.
Гаррі ненадовго заплющив очі. __Безнадійні__. Його батьки просто безнадійні.

// 66
//Now his parents were getting into one of __those__ arguments again, one
//where his mother tried to make his father feel guilty, and his father tried to
//make his mother feel stupid.
Тепер вони знову почнуть одну з __тих__ суперечок, коли мати намагається змусити
батька почуватися винним, а той намагається змусити її почуватися дурною.

// 67
//“I’m going to go to my room,” Harry announced. His voice trembled a little.
//“Please try not to fight too much about this, Mum, Dad, we’ll know soon enough
//how it comes out, right?”
-- Я йду до себе, -- оголосив Гаррі з ледь помітним тремтінням у голосі. -- Будь ласка,
спробуйте не надто сваритися щодо цього, мамо, тату, ми досить скоро дізнаємося,
як воно є, гаразд?

// 68
//“Of course, Harry,” said his father, and his mother gave him a reassuring kiss,
//and then they went on fighting while Harry climbed the stairs to his bedroom.
-- Авжеж, Гаррі, -- сказав батько, а мати нагородила його заспокійливим поцілунком,
а тоді вони знову почали сваритися, поки Гаррі підіймався сходами до своєї кімнати.

// 69
//He shut the door behind him and tried to think.
Він зачинив за собою двері й спробував подумати.

// 70
//The funny thing was, he __should__ have agreed with Dad. No one had ever
//seen any evidence of magic, and according to Mum, there was a whole magical
//world out there. How could anyone keep something like that a secret? More
//magic? That seemed like a rather suspicious sort of excuse.
Цікаво, що він __мав би__ погодитися з татом. Ніхто ніколи не бачив свідчень
існування магії, а згідно з маминою версією, існував цілий магічний світ. Яким чином
усе це вдається утримувати в таємниці? Знову магія? Скидалося на доволі підозріле
виправдовування.

// 71
//It should have been a clean case for Mum joking, lying or being insane, in
//ascending order of awfulness. If Mum had sent the letter herself, that would
//explain how it arrived at the letterbox without a stamp. A little insanity was
//far, far less improbable than the universe really working like that.
Це мало би бути беззаперечною ознакою того, що мама або жартує, або бреше, або
збожеволіла, у порядку зростання жахливості. Якщо вона надіслала була листа сама,
це пояснило б, як він потрапив до скриньки без штампу. Невеличке божевілля було
значно, значно більш імовірним за те, що всесвіт дійсно було так влаштовано.

// 72
//Except that some part of Harry was utterly convinced that magic was real, and
//had been since the instant he saw the putative letter from the Hogwarts School
//of Witchcraft and Wizardry.
Тільки от якась частинка Гаррі була цілковито переконана в існуванні магії. Це
відчуття з'явилось у нього тієї ж миті, щойно він побачив цього листа з гаданої
Гоґвортської школи чарів і чаклунства.

// 73
//Harry rubbed his forehead, grimacing. __Don’t believe everything you
//think,__ one of his books had said.
Гаррі похмуро потер лоба. __Не вір усьому, що думаєш__, вчила одна з його книжок.

// 74
//But this bizarre certainty… Harry was finding himself just __expecting__
//that, yes, a Hogwarts professor would show up and wave a wand and magic would
//come out. The strange certainty was making no effort to guard itself against
//falsification - wasn’t making excuses in advance for why there wouldn’t be a
//professor, or the professor would only be able to bend spoons.
//@ i буде магія
Проте ця незбагненна впевненість... Гаррі усвідомив, що й справді __очікує__, що
так, професор Гоґвортсу зʼявиться, змахне чарівною паличкою -- і буде магія. Ця дивна
впевненість не намагалася захистити себе від спростування -- не вигадувала
завчасно виправдань на випадок, якщо професор не прийде чи зможе
лише згинати ложки.

// 75
//__Where do you come from, strange little prediction?__ Harry directed the
//thought at his brain. __Why do I believe what I believe?__
//@Як тут краще перекласти? prediction -> "передбачення" чи "передчуття" чи свій варіант
__Звідки ти взялося, дивне маленьке передбачення?__ -- Гаррі зосередився на своїх думках.
-- __Чому я вірю в те, у що вірю?__

// 76
//Usually Harry was pretty good at answering that question, but in this
//particular case, he had no __clue__ what his brain was thinking.
Зазвичай Гаррі чудово відповідав на це питання, проте саме цього разу
він і __гадки не мав__, що його мозок собі думає.

// 77
//Harry mentally shrugged. A flat metal plate on a door affords pushing, and a
//handle on a door affords pulling, and the thing to do with a testable
//hypothesis is to go and test it.
Гаррі подумки знизав плечима. У дзвоник дзвонять,
цвях забивають, а гіпотезу, яку можна перевірити, перевіряють.

// 78
//He took a piece of lined paper from his desk, and started writing.
Він узяв зі столу аркуш паперу в лінійку й почав писати.

// 79
//__Dear Deputy Headmistress__
__Шановна заступнице директора__

// 80
//Harry paused, reflecting; then discarded the paper for another, tapping another
//millimetre of graphite from his mechanical pencil. This called for careful
//calligraphy.
Гаррі на хвильку спинився в роздумах, а тоді взяв інший аркуш і висунув ще міліметр
графіту з механічного олівця. Справа вимагала охайного почерку.

// 81
//__Dear Deputy Headmistress Minerva McGonagall,__
__Шановна заступнице директора Мінерво Макґонеґел,__

// 82
//__Or Whomsoever It May Concern:__
__Чи будь-хто, кого це може стосуватися:__

// 83
//__I recently received your letter of acceptance to Hogwarts, addressed to
//Mr. H. Potter. You may not be aware that my genetic parents, James Potter and
//Lily Potter (formerly Lily Evans) are dead. I was adopted by Lily’s sister,
//Petunia Evans-Verres, and her husband, Michael Verres-Evans.__
__Я нещодавно отримав Вашого листа про зарахування до Гоґвортсу, адресованого
"`містерові Г. Поттеру`". Ви могли не знати, що мої генетичні батьки -- Джеймс
Поттер і Лілі Поттер (раніше Лілі Еванс) -- померли. Мене всиновили сестра Лілі,
Петунія Еванс-Веррес, та її чоловік, Майкл Веррес-Еванс.__

// 84
//__I am extremely interested in attending Hogwarts, conditional on such a
//place actually existing. Only my mother Petunia says she knows about magic, and
//she can’t use it herself. My father is highly sceptical. I myself am uncertain.
//I also don’t know where to obtain any of the books or equipment listed in your
//acceptance letter.__
__Я надзвичайно зацікавлений навчатися в Гоґвортсі за умови, що таке місце іcнує
насправді. Моя мати Петунія -- єдина, хто стверджує, що знає про магію, проте
особисто нею не володіє. Мій батько налаштований вкрай скептично. Сам я вагаюся. Я
також не знаю, де можна знайти бодай щось зі списку книжок чи приладдя,
наведеного у Вашому листі.__

// 85
//__Mother mentioned that you sent a Hogwarts representative to Lily Potter
//(then Lily Evans) in order to demonstrate to her family that magic was real,
//and, I presume, help Lily obtain her school materials. If you could do this for
//my own family it would be extremely helpful.__
__Мати згадувала, що Ви надсилали представника Гоґвортсу до Лілі Поттер (тоді
Лілі Еванс) з метою продемонструвати її родині, що магія існує, і, припускаю, для
допомоги з придбанням її шкільних речей. Якби Ви могли зробити щось подібне й
для моєї родини, це б надзвичайно допомогло.__

// 86
//__Sincerely,__
__Щиро Ваш,__

// 87
//__Harry James Potter-Evans-Verres.__
__Гаррі Джеймс Поттер-Еванс-Веррес.__

// 88
//Harry added their current address, then folded up the letter and put it in an
//envelope, which he addressed to Hogwarts. Further consideration led him to
//obtain a candle and drip wax onto the flap of the envelope, into which, using a
//penknife’s tip, he impressed the initials H.J.P.E.V. If he was going to descend
//into this madness, he was going to do it with style.

Гаррі додав їхню поточну адресу, згорнув листа й вклав його в конверт, який
адресував до Гоґвортсу. Подальші роздуми змусили його роздобути
свічку й накапати воску на клапан конверта. На створеній таким чином печатці кінчиком
складаного ножа він вирізав ініціали Г.Дж.П.Е.В. Якщо вже божеволіти, то зі смаком.

// 89
//Then he opened his door and went back downstairs. His father was sitting in the
//living-room and reading a book of higher maths to show how smart he was; and
//his mother was in the kitchen preparing one of his father’s favourite meals to
//show how loving she was. It didn’t look like they were talking to one another
//at all. As scary as arguments could be, __not arguing__ was somehow much
//worse.
Потім він відчинив двері й спустився сходами. Батько сидів у вітальні й читав
книжку з вищої математики, щоб показати, який він розумний; мати готувала на
кухні одну з татових улюблених страв, щоб показати, яка вона любляча дружина.
Видавалося, наче вони взагалі не розмовляли одне з одним. Хай якими страшними
були їхні сварки, __мовчання__ було чомусь значно гіршим.

// 90
//“Mum,” Harry said into the unnerving silence, “I’m going to test the
//hypothesis. According to your theory, how do I send an owl to Hogwarts?”
-- Мамо, -- сказав Гаррі в напруженій тиші, -- я збираюся перевірити гіпотезу.
Згідно з твоєю теорією, як відправити сову до Гоґвортсу?

// 91
//His mother turned from the kitchen sink to stare at him, looking shocked. “I -
//I don’t know, I think you just have to own a magic owl.”
Петунія відволіклася від раковини й розгублено поглянула на нього.

-- Я... Я не знаю, гадаю, в тебе має бути чарівна сова.

// 92
//That should’ve sounded highly suspicious, __oh, so there’s no way to test
//your theory then,__ but the peculiar certainty in Harry seemed willing to stick
//its neck out even further.
Це мало б звучати вкрай підозріло -- __о, отже немає способу перевірити твою
теорію__, -- проте своєрідна впевненість Гаррі, здавалося, й далі вперто гнула своєї.

// 93
//“Well, the letter got here somehow,” Harry said, “so I’ll just wave it around
//outside and call ‘letter for Hogwarts!’ and see if an owl picks it up. Dad, do
//you want to come and watch?”
-- Ну, лист сюди ж якось потрапив, -- сказав Гаррі. -- Отже, я просто помахаю ним
ззовні, гукну "`лист до Гоґвортсу!`" і подивлюся, чи підбере його якась сова.
Тату, хочеш піти зі мною та спостерігати?

// 94
//His father shook his head minutely and kept on reading. __Of course,__
//Harry thought to himself. Magic was a disgraceful thing that only stupid people
//believed in; if his father went so far as to __test__ the hypothesis, or
//even __watch__ it being tested, that would feel like __associating__
//himself with that…
Батько розмірено похитав головою й знову занурився в читання. __Звісно,__ подумав
Гаррі. Магія -- це щось ганебне, в неї можуть вірити лише ду{stress}рні. Якби батько
зайшов так далеко, щоб __перевірити__ цю гіпотезу чи навіть просто __подивитися__ на її
перевірку, він почувався б __спільником__ усього цього...

// 95
//Only as Harry stumped out the back door, into the back garden, did it occur to
//him that if an owl __did__ come down and snatch the letter, he was going
//to have some trouble telling Dad about it.
Лише коли Гаррі прошкандибав через задні двері до подвірʼя, йому на
думку спало, що якщо сова __справді__ прилетить і вихопить листа, у нього
будуть проблеми з тим, щоби розповісти про це батькові.

// 96
//__But - well - that can’t__ really __happen, can it? No matter what
//my brain seems to believe. If an owl really comes down and grabs this envelope,
//I’m going to have worries a lot more important than what Dad thinks.__
__Проте... ну... цього ж не може статися __насправді__, чи не так? У що б мій мозок не
вірив. Якщо сова таки прилетить і схопить цей конверт, я матиму
набагато важливіші клопоти, ніж татова думка.__

// 97
//Harry took a deep breath, and raised the envelope into the air.
Гаррі глибоко вдихнув і підняв конверт догори.

// 98
//He swallowed.
//@оце swallow треба якось уніфікувати коректно
Він ковтнув слину.

// 99
//Calling out __Letter for Hogwarts!__ while holding an envelope high in the
//air in the middle of your own back garden was… actually pretty embarrassing,
//now that he thought about it.
Вигукувати "`__Лист до Гоґвортсу!__`", тримаючи конверт високо в повітрі посеред
власного заднього подвірʼя... якщо задуматись, як він оце зараз зробив, то це було
доволі ніяково.

// 100
//__No. I’m better than Dad. I will use the scientific method even if it
//makes me feel stupid.__
__Ні. Я кращий за тата. Я використаю науковий метод, навіть якщо почуватимуся
при цьому безґлуздо.__

// 101
//“Letter -” Harry said, but it actually came out as more of a whispered croak.
-- Лист... -- почав був Гаррі, але звуки, які виходили з його горлянки, більше
скидалися на несміливе квакання.

// 102
//Harry steeled his will, and shouted into the empty sky, “__Letter for
//Hogwarts! Can I get an owl?__”
Гаррі зібрав усю свою волю й прокричав у порожнє небо:

-- __Лист до Гоґвортсу! Можна мені сову?__

// 103
//“Harry?” asked a bemused woman’s voice, one of the neighbours.
-- Гаррі? -- пролунав спантеличений жіночий голос однієї з сусідок.

// 104
//Harry pulled down his hand like it was on fire and hid the envelope behind his
//back like it was drug money. His whole face was hot with shame.
Відсахнувшись, мов від вогню, Гаррі рвучко опустив руку й заховав конверт за спину,
наче це були гроші за наркотики. Його обличчя пашіло від сорому.

// 105
//An old woman’s face peered out from above the neighbouring fence, grizzled grey
//hair escaping from her hairnet. Mrs. Figg, the occasional babysitter. “What are
//you doing, Harry?”
Обличчя старої жінки вигулькнуло над сусіднім парканом, сірі пасма вибивалися
з-під сітки для волосся. Місіс Фіґ, що подеколи за ним наглядала.

-- Що ти робиш, Гаррі?

// 106
//“Nothing,” Harry said in a strangled voice. “Just - testing a really silly
//theory -”
-- Нічого, -- сказав Гаррі здушеним голосом. -- Просто перевіряю одну доволі
дурнячу теорію...

// 107
//“Did you get your acceptance letter from Hogwarts?”
-- Ти отримав лист про зарахування до Гоґвортсу?

// 108
//Harry froze in place.
Гаррі завмер на місці.

// 109
//“Yes,” Harry’s lips said a little while later. “I got a letter from Hogwarts.
//They say they want my owl by the 31st of July, but -”
-- Так, -- губи Гаррі спромоглися відповісти після паузи. -- Я отримав листа з Гоґвортсу.
Там сказано, що вони чекатимуть на мою сову до 31-го липня, але...

// 110
//“But you don’t __have__ an owl. Poor dear! I can’t imagine __what__
//someone must have been thinking, sending you just the standard letter.”
-- Але в тебе __немає__ сови. Бідолаха! Не уявляю, __про що__ вони тільки
думали -- надіслати тобі самого лише стандартного листа.

// 111
//A wrinkled arm stretched out over the fence, and opened an expectant hand.
//Hardly even thinking at this point, Harry gave over his envelope.
Зморшкувата рука простягнулася над парканом, відкрита долоня завмерла в очікуванні.
Майже бездумно, Гаррі віддав листа.

// 112
//“Just leave it to me, dear,” said Mrs. Figg, “and in a jiffy or two I’ll have
//someone over.”
-- Я цим займуся, дорогенький, -- сказала місіс Фіґ, -- і за хвильку приведу кого-небудь.

// 113
//And her face disappeared from over the fence.
Її обличчя зникло за парканом.

// 114
//There was a long silence in the garden.
У саду запала довга тиша.

// 115
//Then a boy’s voice said, calmly and quietly, “What.”
Потім голос хлопчика спокійно й тихо сказав:

-- Якого.
