// 10449
//== The Stanford Prison Experiment, Pt 10
== Розділ 60. Стенфордський Тюремний Експеримент, ч.10

// 10450
//“Wake.”
-- Прокиньтеся.

// 10451
//Harry’s eyes flew open as he came awake with a choking gasp, a jerking start of
//his prone body. He couldn’t remember any dreams, maybe his brain had been too
//exhausted to dream, it seemed like he’d only closed his eyes and then heard
//that word spoken a moment after.
Очі Гаррі рвучко розплющилися, він прокинувся і одразу почав задихаючись хапати
ротом повітря, розпластане на підлозі тіло намагалося почати функціонувати. Він не міг
згадати снів, можливо, його мозок був надто виснаженим, щоб бачити сни,
видавалося, він щойно заплющив очі і вже за мить почув це слово.

// 10452
//“You must awaken,” said the voice of Quirinus Quirrell. “I gave you as much
//time as I could, but it would be wise to reserve at least one use of your
//Time-Turner. Soon we must go backward four hours to Mary’s Place, appearing in
//every way as though we have done nothing interesting this day. I wished to
//speak to you before then.”
-- Ви маєте прокинутися, -- почувся голос Квіріна Квірела. -- Я дав вам стільки
часу, скільки міг, проте буде розумно зберегти принаймні одне використання
часовороту. Невдовзі ми муситимемо повернутися на чотири години до "`У Мері`",
і досконало робити вигляд, ніби сьогодні не сталося нічого цікавого. Я хотів
поговорити з вами перед цим.

// 10453
//Harry slowly sat up in the midst of darkness. His body ached, and not only in
//the places where it had laid on the hard concrete. Images tumbled over each
//other in his memory, everything his unconscious brain had been too tired to
//discharge into a proper nightmare.
Гаррі повільно сів посеред темряви. Його тіло боліло, і не лише в місцях, де
він лежав на твердому бетоні. Зображення з памʼяті перекривали одне одного --
усе, що його непритомний мозок не впорався перетворити на пристойне жахіття,
він бачив тепер.

// 10454
//Twelve terrible voids floating down a metal corridor, tarnishing the metal
//around them, light dimmed and temperature falling as the emptiness tried to
//suck all life out of the world -
Дванадцять жахливих відсутностей пливуть металевим коридором, навколо них тьмяніє
метал та світло, температура падає, коли порожнеча намагається висмоктати все
життя з цього світу...

// 10455
//Chalk-white skin, stretched just above the bone that had remained after fat and
//muscle faded -
Біла мов крейда шкіра, натягнута над кістками, що залишилися, коли жир та мʼязи
розклалися...

// 10456
//A metal door -
Металеві двері...

// 10457
//A woman’s voice -
Голос жінки...

// 10458
//__No, I didn’t mean it, please don’t die -__
// hedrok: копія 55:9776
__Ні, я не хотіла, будь ласка, не помирай...__

// 10459
//__I can’t remember my children’s names any more -__
// hedrok: копія 55:9802
__Я вже не можу згадати імен своїх дітей...__

// 10460
//__Don’t go, don’t take it away, don’t don’t don’t -__
// hedrok: копія 55:9800
__Не йди, не забирай його, не-не-не...__

// 10461
//“What was that place?” Harry said hoarsely, in a voice pushed out of his throat
//like water forced through a too-thin pipe, in the darkness it sounded almost as
//shattered as Bellatrix Black’s voice had been. “__What was that place?
//That wasn’t a prison, that was HELL!__”
-- Що це було за місце? -- сипло вичавив зі свого горла Гаррі, ніби воду
пропустили крізь надто вузьку трубу. У темряві його голос звучав майже таким
зламаним, яким був голос Белатриси Блек. -- __Що це було за місце? Це була не
тюрма, це було ПЕКЛО!__

// 10462
//“Hell?” said the calm voice of the Defense Professor. “You mean the Christian
//punishment fantasy? I suppose there is a similarity.”
-- Пекло? -- спокійно перепитав професор із захисту. -- Ви про християнську
фантазію про покарання? Гадаю, є подібність.

// 10463
//“How -” Harry’s voice was blocking, there was something huge lodged in his
//throat. “How - how could they -” __People__ had built that place, someone
//had __made__ Azkaban, they’d made it on __purpose,__ they’d done it
//__deliberately,__ that woman, she’d had children, children she wouldn’t
//remember, some judge had __decided__ for that to happen to her, someone
//had needed to __drag__ her into that cell and lock its door while she
//screamed, someone fed her every day and walked away __without letting her
//out__ -
-- Як... -- Гаррі важко було розмовляти, ніби щось величезне блокувало його
голос посеред горла. -- Як... як вони могли...

__Люди__ побудували були це місце, хтось __створив був__ Азкабан, вони створили його
__свідомо__, вони зробили його __навмисно__, ця жінка, у неї були діти, діти, що їх
імен вона вже не памʼятає, якийсь суддя __вирішив__, щоб це сталося з нею, хтось
мав __притягти__ її в камеру й замкнути двері, доки вона кричала, хтось годував
її щодня та йшов собі геть, і __не випускав її...__

// 10464
//“__HOW COULD PEOPLE DO THAT?__”
-- __ЯК ЛЮДИ МОЖУТЬ ТАКЕ РОБИТИ?__

// 10465
//“Why shouldn’t they?” said the Defense Professor. A pale blue light lit the
//warehouse, then, showing a high, cavernous concrete ceiling, and a dusty
//concrete floor; and Professor Quirrell sitting some distance away from Harry,
//leaning his back against a painted wall; the pale blue light turned the walls
//to glacier surfaces, the dust on the floor to speckled snow, and the man
//himself had become an ice sculpture, shrouded in darkness where his black robes
//lay over him. “What use are the prisoners of Azkaban to them?”
-- Чому б їм такого не робити? -- запитав професор із захисту.

Слабке блакитне світло осяяло склад, показало високу склепінчасту стелю,
запорошену бетонну підлогу та професора Квірела, що сидів на віддалі від Гаррі
та спирався спиною на пофарбовану стіну. Блакитне світло перетворювало стіни
на поверхні айсбергів, порох на сніжинки, а чоловік перетворився на скульптуру
з льоду, закутану в темряву там, де його прикривала чорна мантія.

-- Яка їм користь з вʼязнів Азкабану?

// 10466
//Harry’s mouth opened in a croak. No words exited.
Гаррі розкрив рота, та він лише крякнув. Не вимовив жодного слова.

// 10467
//A faint smile twitched on the Defense Professor’s lips. “You know, Mr. Potter,
//if He-Who-Must-Not-Be-Named had come to rule over magical Britain, and built
//such a place as Azkaban, he would have built it because he enjoyed seeing his
//enemies suffer. And if instead he began to find their suffering distasteful,
//why, he would order Azkaban torn down the next day. As for those who did make
//Azkaban, and those who do not tear it down, while preaching lofty sermons and
//imagining themselves __not__ to be villains… well, Mr. Potter, I think if
//I had my choice of taking tea with them, or taking tea with You-Know-Who, I
//should find my sensibilities less offended by the Dark Lord.”
Легка посмішка скривила губи професора із захисту.

-- Знаєте, містере Поттер, якби Той-Кого-Не-Можна-Називати запанував у
чаклунській Британії та побудував таке місце як Азкабан, він побудував би його,
щоб насолоджуватися стражданням своїх ворогів. А якби натомість йому їхні
страждання почали здаватися несмаком -- ну а як же, він наказав би знести Азкабан
наступного ж дня... А щодо тих, хто справді побудував Азкабан, тих, хто не
наказує його знести і водночас повчає інших високими проповідями -- і __не__
вважає себе лиходієм... ну, містере Поттер, гадаю, якби в мене був вибір, з ким
сидіти за одним столом -- з такою людиною чи з Відомо-Ким -- я вибрав би компанію
Темного Лорда, як більш прийнятну для себе.

// 10468
//“I don’t understand,” Harry said, his voice was shaking, he’d read about the
//classic experiment on the psychology of prisons, the ordinary college students
//who had turned sadistic as soon as they were assigned the role of prison
//guards; only now he realized that the experiment hadn’t examined the right
//question, the one most important question, they hadn’t looked at the key
//people, not the prison guards but __everyone else,__ “I really don’t
//understand, Professor Quirrell, how can people just stand by and let this
//happen, __why__ is the country of magical Britain __doing this__ -”
//Harry’s voice stopped.
-- Я не розумію, -- сказав Гаррі, його голос тремтів; він читав був класичні
досліди з психології у тюрмах, як звичайні студенти коледжу перетворювалися
на садистів, щойно їм випадала роль охоронців. Лише зараз він збагнув, що
в досліді бракувало правильного питання, найважливішого питання, не розглядалися
ключові люди -- не тюремні охоронці, а __усі інші__, -- я справді не розумію,
професоре Квірел, як люди можуть просто стояти поряд і дозволяти це, __чому__
чаклунська Британія __робить це__...

// 10469
//The Defense Professor’s eyes appeared to be the same color as always, in the
//pale blue light, for that light was the same color as Quirinus Quirrell’s
//irises, those never-thawing chips of ice. “Welcome, Mr. Potter, to your first
//encounter with the realities of politics. What do the wretched creatures in
//Azkaban have to offer any faction? Who would benefit from aiding them? A
//politician who openly sided with them would associate themselves with
//criminals, with weakness, with distasteful things that people would rather not
//think about. Alternatively, the politician could demonstrate their might and
//cruelty by calling for longer sentences; to make a display of strength requires
//a victim to crush beneath you, after all. And the populace applauds, for it is
//their instinct to back the winner.” A coldly amused laugh. “You see, Mr.
//Potter, no one ever quite believes that __they__ will go to Azkaban, so
//they see no harm in it for themselves. As for what they inflict on others… I
//suppose you were once told that people care about that sort of thing? It is a
//lie, Mr. Potter, people don’t care in the slightest, and if you had not led a
//vastly sheltered childhood you would have noticed that long ago. Console
//yourself with this: those now prisoner in Azkaban voted for the same Ministers
//of Magic who pledged to move their cells closer to the Dementors. I admit, Mr.
//Potter, that I see little hope for democracy as an effective form of
//government, but I admire the poetry of how it makes its victims complicit in
//their own destruction.”
Очі професора із захисту не змінили кольору в цьому блакитному освітленні, адже
це світло було того ж кольору, що й райдужна оболонка очей Квіріна Квірела,
цих шматочків льоду, що ніколи не тануть.

-- Вітаю вас, містере Поттер, з вашою першою зустріччю зі справжньою політикою.
Що жалюгідні створіння в Азкабані можуть дати будь-якій фракції? Хто виграє від
союзу з ними? Політик, що відкрито підтримає їх, асоціюватиметься зі злочинцями,
зі слабкістю, з огидними речами, про які люди не полюбляють думати. З іншого
боку, політики можуть демонструвати свою силу та жорстокість, коли вимагають
довших строків. Зрештою, демонстрація сили потребує жертви, яку треба
розчавити. І населення аплодує, адже вони інстинктивно підтримують переможця,
-- холодний задоволений сміх. -- Розумієте, містере Поттер, ніхто ніколи не
вірить, що __він__ потрапить в Азкабан, тому вони не вбачають у цьому шкоди
собі. А щодо того, що вони накликають на інших... Гадаю, колись вам сказали, ніби
людей таке турбує? Це брехня, містере Поттер, людей це анітрохи не турбує, і
якби ви не провели дитинство під такою старанною опікою, ви б уже давно це
помітили. Втішайтеся цим: поточні вʼязні Азкабану голосували за того ж міністра
магії, що запропонував посунути їхні камери ближче до дементорів. Я визнаю,
містере Поттер, що слабо вірю в демократію як ефективну форму правління, проте я
поважаю поетичність того, як вона змушує своїх жертв бути співучасниками
власного ж знищення.

// 10470
//Harry’s recently cohered self was threatening to shatter into fragments again,
//the words falling like hammerstrikes on his consciousness, driving him back,
//step by step, over the precipice where lurked some vast abyss; and he was
//trying to find something to save himself, some clever retort that would refute
//the words, but it did not come.
Нещодавно воззʼєднане я Гаррі от-от могло знову розлетітися на частки. Ці слова
били його свідомість мов молоток, змушували його відступати крок за кроком
дедалі ближче до прірви, де чигала безодня. І він намагався знайти щось, щоб
урятуватися, якусь хитру відповідь, щоб спростувати ці слова, проте її все не
було.

// 10471
//The Defense Professor watched Harry, the gaze reflecting more curiosity than
//command. “It is very simple, Mr. Potter, to understand how Azkaban was built,
//and how it continues to be. Men care for what they, themselves, expect to
//suffer or gain; and so long as they do not expect it to redound upon
//themselves, their cruelty and carelessness is without limit. All the other
//wizards of this country are no different within than he who sought to rule over
//them, You-Know-Who; they only lack his power and his… frankness.”
Професор із захисту спостерігав за Гаррі скоріше зацікавлено, ніж владно.

-- Дуже просто зрозуміти, як Азкабан побудували і як він продовжує існування,
містере Поттер. Людей турбує лише те, що вони самі очікують отримати чи
втратити. А доки вони не очікують кари, їхня жорстокість та байдужість не мають
меж. Усі чарівники цієї країни нічим не відрізняються від того, хто хотів над
ними панувати, -- від Відомо-Кого. Їм лише бракує його могутності та його...
відвертості.

// 10472
//The boy’s hands were clenched into fists so tightly that the nails cut into his
//palm, if his fingers were white or his face was pale you couldn’t have seen
//that, for the dim blue light cast all into ice or shadow. “You once offered to
//support me if my ambition were to be the next Dark Lord. Is that why,
//Professor?”
Руки хлопця з такою силою стислися в кулаки, що нігті врізалися в долоню. Якщо
його пальці були білими чи обличчя було блідим, цього не можна було побачити
в слабкому блакитному світлі, що перетворювало все на лід чи тінь.

-- Колись ви запропонували мені підтримку, якщо моїм прагненням є стати
наступним темним лордом. Через це, професоре?

// 10473
//The Defense Professor inclined his head, a thin smile on his lips. “Learn all
//that I have to teach you, Mr. Potter, and you will rule this country in time.
//Then you may tear down the prison that democracy made, if you find that Azkaban
//still offends your sensibilities. Like it or not, Mr. Potter, you have seen
//this day that your own will conflicts with the will of this country’s populace,
//and that you do not bow your head and submit to their decision when that
//occurs. So to them, whether or not they know it, and whether or not you
//acknowledge it, you are their next Dark Lord.”
//hedrok: bow your head 063:11293; to them...next Dark Lord 063:11295
Професор із захисту нахилив голову, тонка посмішка виднілася на його обличчі.

-- Навчіться всього, чому я навчатиму вас, містере Поттер, і свого часу ви
правитимете в цій країні. Тоді можете знести тюрму, що її створила демократія,
якщо на той час Азкабан досі здаватиметься вам неприйнятним. Подобається вам це
чи ні, містере Поттер, але сьогодні ви побачили, що ваша воля суперечить волі
населення цієї країни, і що ви не готові схилити голову й прийняти їхнє
рішення. Отже для них, знають вони про це чи ні, і визнаєте ви це чи ні, ви і
є їхній наступний темний лорд.

// 10474
//In the monochromatic light, unwavering, the boy and the Defense Professor both
//seemed like motionless ice sculptures, the irises of their eyes reduced to
//similar colors, looking very much the same in that light.
У однокольоровому непохитному світлі хлопець та професор із захисту здавалися
нерухомими льодяними скульптурами, колір їхніх очей був однаковим, і вони
були дуже схожі один на одного в цьому освітленні.

// 10475
//Harry stared directly into those pale eyes. All the long-suppressed questions,
//the ones he’d told himself he was putting on hold until the Ides of May. That
//had been a lie, Harry now knew, a self-deception, he had kept silent for fear
//of what he might hear. And now everything was coming forth from his lips, all
//at once. “On our first day of class, you tried to convince my classmates I was
//a killer.”
Гаррі втупився прямо в ці бліді очі. Усі давно стримані питання, ті, що він їх
збирався відкласти до травневих ід. Це була брехня, як зрозумів тепер Гаррі,
самоомана, насправді він мовчав через страх того, що він може почути. Та тепер
усе злітало з його губ, усе одразу.

-- На першому ж нашому занятті ви хотіли переконати моїх однокласників, що я
вбивця.

// 10476
//“You are.” Amusedly. “But if your question is why I __told__ them that,
//Mr. Potter, the answer is that you will find ambiguity a great ally on your
//road to power. Give a sign of Slytherin on one day, and contradict it with a
//sign of Gryffindor the next; and the Slytherins will be enabled to believe what
//they wish, while the Gryffindors argue themselves into supporting you as well.
//So long as there is uncertainty, people can believe whatever seems to be to
//their own advantage. And so long as you appear strong, so long as you appear to
//be winning, their instincts will tell them that their advantage lies with you.
//Walk always in the shadow, and light and darkness both will follow.”
-- Так і є, -- з веселістю відповів професор із захисту. -- Проте якщо ви
питаєте про те, чому я __розповів__ їм про це, містере Поттер, то відповідь
полягає в тому, що невизначеність буде вашим головним союзником на вашому шляху
до влади. Одного дня дайте знак слизеринцям, наступного заперечте його знаком
ґрифіндорцям. Слизеринці матимуть можливість вірити, у що бажають вони, а
ґрифіндорці теж вмовлять себе вас підтримати. Доки є невідомість, люди можуть
вірити у те, що їм здається вигіднішим. І доки ви видаватиметеся сильним, доки
здаватиметься, що ви перемагаєте, їхні інстинкти підкажуть їм, що варто вас
підтримати. Ідіть у тіні, і тоді світло й темрява вдвох підуть за вами.

// 10477
//“And,” said the boy, his voice level, “just what do __you__ want out of
//all this?”
-- І, -- продовжив хлопець рівним голосом, -- для чого саме це __вам__?

// 10478
//Professor Quirrell had leaned further back against the wall from where he sat,
//casting his face into shadow, his eyes changing from pale ice into dark pits
//like those of his snake form. “I wish for Britain to grow strong under a strong
//leader; that __is__ my desire. As for my reasons why,” Professor Quirrell
//smiled without mirth, “I think they shall stay my own.”
Професор Квірел ще сильніше сперся на стіну, на його обличчя лягла тінь, очі
перетворилися з блідого льоду на темні ями, ніби в його зміїної подоби.

-- Я бажаю, щоб Британія стала сильною під керівництвом сильного лідера. Це є
моє бажання. Щодо причин, -- професор Квірел невесело посміхнувся, -- гадаю, я
не розкриватиму їх.

// 10479
//“The sense of doom that I feel around you.” The words were becoming harder and
//harder to say, as the subject danced closer and closer to something terrible
//and forbidden. “You always knew what it meant.”
-- Відчуття невідворотного, що я відчуваю коло вас, -- вимовляти слова було
дедалі важче, адже він підкрадався дедалі ближче до чогось страшного й
забороненого. -- Ви завжди знали, що воно означає.

// 10480
//“I had several guesses,” said Professor Quirrell, his expression unreadable.
//“And I will not yet say all I guessed. But this much I will tell you: it is
//__your__ doom which flares when we come near, not mine.”
-- У мене було кілька здогадів, -- сказав професор Квірел, вираз його обличчя
неможливо було побачити. -- І я зараз не розповім усе, про що здогадався. Проте
принаймні це я скажу вам: ця невідворотність __для вас__ спалахує, коли ми
наближаємося один до одного, а не для мене.

// 10481
//For once Harry’s brain managed to mark this as a questionable assertion and
//possible lie, instead of believing everything it heard. “Why do you sometimes
//turn into a zombie?”
Хоча б зараз мозкові Гаррі вдалося позначити це як сумнівне твердження та можливу
брехню, а не просто повірити в усе, що Гаррі чув.

-- Чому ви інколи перетворюєтеся на зомбі?

// 10482
//“Personal reasons,” said Professor Quirrell with no humor at all in his voice.
-- Особисті причини, -- сказав професор Квірел без тіні гумору в голосі.

// 10483
//“What was your ulterior motive for rescuing Bellatrix?”
-- Яким був ваш справжній мотив для порятунку Белатриси?

// 10484
//There was a brief silence, during which Harry tried hard to control his
//breathing, keep it steady.
Ненадовго запанувала тиша, впродовж якої Гаррі дуже старався контролювати
своє дихання, тримати його рівним.

// 10485
//Finally the Defense Professor shrugged, as though it were of no account. “I all
//but spelled it out for you, Mr. Potter. I told you everything you needed to
//deduce the answer, if you had been mature enough to consider that first obvious
//question. Bellatrix Black was the Dark Lord’s most powerful servant, her
//loyalty the most assured; she was the single person most likely to be entrusted
//with some part of the lost lore of Slytherin that should have been yours.”
Нарешті професор із захисту знизав плечима, ніби це не мало значення.

-- Я ж усе розжував для вас, містере Поттер. Я сказав вам усе, щоб ви могли
вивести відповідь, якби були достатньо зрілим, щоб розглянути це найочевидніше
питання. Белатриса Блек була наймогутнішою слугою Темного Лорда, її вірність
була найменш сумнівною. Вона є найімовірнішою людиною, що може мати якусь
частину втраченого учення Салазара, що має бути вашим.


// 10486
//Slowly the anger crept over Harry, slowly the wrath, something terrible
//beginning to boil his blood, in just a few moments he would say something that
//he really shouldn’t say while the two of them were alone in a deserted
//warehouse -
Гаррі повільно охоплював гнів, повільна лють, щось жахливе почало закипати в
його крові, і за кілька секунд він скаже щось, що справді не варто казати, доки
вони були лише вдвох на закинутому складі...

// 10487
//“But she __was __innocent,” said the Defense Professor. He was not
//smiling. “And the degree to which all her choices were taken away from her, so
//that she never had a chance to suffer for her __own__ mistakes… it struck
//me as __excessive__, Mr. Potter. If she tells you nothing of use -” The
//Defense Professor gave another small shrug. “I shall not consider this day’s
//work a waste.”
-- Але вона __була__ невинною, -- сказав професор із захисту. Він не
посміхався. -- І в неї забрали волю в усіх її рішеннях, тому вона не мала
можливості страждати за __власні__ помилки... мені здалося це __зайвим__,
містере Поттер. Якщо вона не скаже вам нічого корисного... -- професор із
захисту знову злегка знизав плечима. -- Я не вважатиму сьогоднішню працю
марною.

// 10488
//“How altruistic of you,” Harry said coldly. “So if all wizards are like
//You-Know-Who inside, are you an exception to that, then?”
-- Як альтруїстично з вашого боку, -- холодно сказав Гаррі. -- То якщо всі
чарівники всередині не відрізняються від Відомо-Кого, чи є ви винятком з цього
правила?

// 10489
//The Defense Professor’s eyes were still in shadow, dark pits that could not be
//met. “Call it a whim, Mr. Potter. It has sometimes amused me to play the part
//of a hero. Who knows but that You-Know-Who would say the same.”
Очі професора із захисту досі були в тіні, ці чорні ями, що з ними неможливо
було зустрітися поглядом.

-- Вважайте це примхою, містере Поттер. Подеколи мене розважало пограти роль
героя. Хтозна, можливо, Відомо-Хто міг би сказати те саме.

// 10490
//Harry opened his mouth a final time -
Гаррі розкрив рота для останнього питання...

// 10491
//And found that he couldn’t say it, he couldn’t ask the last question, the last
//and most important question, he couldn’t make the words come out. Even though a
//refusal like that was forbidden to a rationalist, for all that he’d ever
//recited the Litany of Tarski or the Litany of Gendlin or sworn that whatever
//could be destroyed by the truth should be, in that one moment, he could not
//bring himself to say his last question out loud. Even though he knew he was
//thinking wrongly, even though he knew he was supposed to be better than this,
//he still couldn’t say it.
І виявилося, що він не здатен його поставити, це останнє питання, останнє й
найважливіше питання, не міг змусити себе вимовити слова. Незважаючи на те, що
така відмова була забороненою для раціоналіста, незважаючи на нескінченне
цитування молитви Тарського та молитви Гендліна, незважаючи на віру в "`те, що
здатна знищити правда, має бути знищено`", саме в ту мить він не міг наважитися
поставити це останнє питання вголос. Хоч він і знав, що мислив хибно, хоч і
знав, що він мав би бути кращим за це, та все одно не міг вимовити питання.

// 10492
//“Now it is my turn to inquire of you.” Professor Quirrell’s back straightened
//from where it had leaned back against the glacier wall of painted concrete. “I
//was wondering, Mr. Potter, if you had anything to say about nearly killing me
//and ruining our mutual endeavor. I am given to understand that an apology, in
//such cases, is considered a sign of respect. But you have not offered me one.
//Is it just that you have not yet gotten around to it, Mr. Potter?”
-- Тепер моя черга влаштовувати вам допит, -- професор Квірел випрямив спину,
хоча досі спирався на стіну айсберга -- пофарбованого бетону. -- Мені цікаво,
містере Поттер, чи є вам що сказати про те, як ви ледь не вбили мене та ледь не
звели нанівець наші спільні зусилля. Мені натякали, що в таких випадках вибачення
є ознакою поваги. Проте ви не надали мені жодних вибачень. Ви просто ще не дійшли
до цього, містере Поттер?

// 10493
//The tone was calm, the quiet edge so fine and sharp that it would slice all the
//way through you before you realized you were being murdered.
Сказано це було спокійним тоном -- ніби тихе лезо, настільки гостре, що переріже тебе
навпіл, а ти й не збагнеш, що тебе вбивають.

// 10494
//And Harry just looked at the Defense Professor with cool eyes that would never
//flinch from anything; not even death, now. He was no longer in Azkaban, no
//longer fearful of the part of himself that was fearless; and the solid gemstone
//that was Harry had rotated to meet the stress, turning smoothly from one facet
//to another, from light to darkness, warm to cold.
І Гаррі просто подивився на професора із захисту холодними очима, що ніколи
ні від чого не здригнуться: тепер навіть від смерті. Він уже не був в Азкабані,
вже не боявся безстрашної частини себе. І гранчастий камінь, що ним був Гаррі,
провернувся, щоб впоратися зі стресом, плавно перемінився з однієї грані
на іншу, від світла до пітьми, від тепла до холоду.

// 10495
//__A calculated ploy on his part, to make me feel guilty, put me in a
//position where I must submit?__
__Прорахована хитрість з його боку, щоб змусити мене почуватися винним,
змусити мене підкоритися йому?__

// 10496
//__Genuine emotion on his part?__
__Щирі емоції з його боку?__

// 10497
//“I see,” said Professor Quirrell. “I suppose that answers -”
-- Зрозуміло, -- сказав професор Квірел. -- Гадаю, це відповідає...

// 10498
//“No,” said the boy in a cool, collected voice, “you do not get to frame the
//conversation that easily, Professor. I went to considerable lengths to protect
//you and get you out of Azkaban safely, __after__ I thought you had tried
//to kill a police officer. That included facing down twelve Dementors without a
//Patronus Charm. I wonder, if I had apologized when you demanded it, would you
//have said thank-you in turn? Or am I correct in thinking that it was my
//submission you demanded there, and not only my respect?”
-- Ні, -- спокійно й зібрано сказав хлопець, -- у вас не вийде так просто
фабрикувати розмову, професоре. Я зробив чимало, щоб захистити вас та безпечно
вивести вас з Азкабану вже __після__ того, як вважав, що ви намагалися вбити
поліцейського офіцера. Включно із зустріччю з дванадцятьма дементорами без
чарів патронуса. Цікаво, якби я вибачився, як ви вимагаєте, чи сказали б ви у
відповідь "`дякую`"? Чи я правильно здогадався, що ви вимагаєте моєї покори, а
не лише поваги?

// 10499
//There was a pause, and then Professor Quirrell’s voice came in reply, openly
//icy with danger no longer veiled. “It seems you still cannot bring yourself to
//lose, Mr. Potter.”
Після недовгої паузи професор Квірел відповів, тепер відверто холодно, він уже
не приховував загрози:

-- Видається, ви досі не можете змусити себе програти, містере Поттер.

// 10500
//Darkness stared out of Harry’s eyes without flinching, the Defense Professor
//himself reduced to a mortal thing within them. “Oh, and are __you__
//pondering now, whether __you__ should pretend to lose to me, and pretend
//to humble yourself before my own anger, in order to preserve your own plans?
//Did the thought of a calculated false apology even __cross your mind?__ Me
//neither, Professor Quirrell.”
Пітьма визирала з очей Гаррі, і в нього не було жодних сумнівів. Професор із
захисту став простим смертним у цьому погляді.

-- О, а __ви__ зараз розмірковуєте, чи __вам__ варто вдати програш мені, і
вдати, ніби вам треба підкоритися моєму гніву, щоб не зламати ваші власні
плани?  Вам бодай __спало на думку__ фальшиво вибачитися з розрахунку? Мені теж
ні, професоре Квірел.

// 10501
//The Defense Professor laughed, low and humorless, emptier than the void between
//the stars, dangerous as any vacuum filled with hard radiation. “No, Mr. Potter,
//you have not learned your lesson, not at all.”
Професор із захисту засміявся, тихо й без тіні гумору, сміх був більш порожнім,
ніж простір між зірками, і небезпечним, як будь-який вакуум, насичений
жорстким випромінюванням.

-- Ні, містере Поттер, ви не засвоїли урок, зовсім ні.

// 10502
//“I thought of losing many times, in Azkaban,” said the boy, his voice level.
//“That I ought to simply give up, and turn myself over to the Aurors. Losing
//would have been the sensible thing to do. I heard your voice saying it to me,
//in my mind; and I would have __done__ it, if I had been there by myself.
//But I could not bring myself to lose __you__.”
-- Я багато разів думав про те, щоб програти там, в Азкабані, -- сказав
хлопець рівним голосом. -- Що треба просто здатися і піти до аврорів. Програти
було найрозумнішою дією. Я чув у себе в голові ваш же голос, що казав це. І я б
__зробив__ це, якби був там сам. Але я не міг змусити себе програти __вас__.

// 10503
//There was silence, then, for a time; as though even the Defense Professor could
//not quite think of what to say to that.
На деякий час запала тиша, ніби навіть професор із захисту не міг вигадати, що
на це відповісти.

// 10504
//“I am curious,” said Professor Quirrell at last. “What do you think that I
//should apologize for, precisely? I gave you explicit instructions in the event
//of a fight. You were to stay down, stay out of the way, cast no magic. You
//violated those instructions and brought down the mission.”
-- Мені цікаво, -- зрештою сказав професор Квірел. -- А за що саме з вашої
точки зору я маю вибачитися? Я дав вам чіткі інструкції, що робити в разі бою. Ви
мали лежати, не втручатися в бій, не використовувати магію. Ви порушили ці
інструкції і зруйнували місію.

// 10505
//“I made no decision,” the boy said evenly, “there was no choice in it, only a
//wish that the Auror should not die, and my Patronus was there. For that wish to
//have never occurred, you should have warned me that you might bluff using a
//Killing Curse. By default, I assume that if you point your wand at someone and
//say Avada Kedavra, it is because you want them dead. Shouldn’t that be the
//first rule of Unforgivable Curse Safety?”
-- Я не приймав жодних рішень, -- рівно сказав хлопець, -- не було жодного
вибору, лише бажання, щоб аврор не помер, і мій патронус був там. Щоб це
бажання ніколи не виникло, ви мали попередити мене, що можете блефувати за
допомогою смертельного закляття. Без додаткових уточнень я вважаю, що як ви
направляєте на когось паличку та кажете "`Авада Кедавра`", то ви бажаєте йому
смерті. Хіба це не перше правило безпеки непрощенних заклять?

// 10506
//“Rules are for duels,” said the Defense Professor. Some of the coldness had
//returned to his voice. “And dueling is a sport, not a branch of Battle Magic.
//In a real fight, a curse which cannot be blocked and __must__ be dodged is
//an indispensable tactic. I would have thought this obvious to you, but it seems
//I misjudged your intellect.”
-- Правила для дуелей, -- сказав професор із захисту. Частка холоду повернулася
до його голосу. -- А дуелі -- це спорт, а не галузь бойової магії. У справжньому
бою прокляття, що його неможливо заблокувати, і від нього __треба__ ухилитися,
є незамінною тактикою. Я гадав, що вам це має бути очевидним, проте, напевно, я
переоцінив ваш інтелект.

// 10507
//“It also seems to me imprudent,” said the boy, continuing as though the other
//had not spoken, “to not __tell me__ that my casting any spell on you might
//kill us both. What if you had suffered some mishap, and I had tried an
//Innervate, or a Hover Charm? That ignorance, which you permitted for purposes I
//cannot guess, played also some part in this catastrophe.”
-- Також мені здається нерозсудливим, -- сказав хлопець, він продовжував далі,
ніби відповіді не було, -- не __сказати мені__, що застосування будь-якого
закляття на вас з мого боку може вбити нас обох. А що як з вами стався б якийсь
нещасний випадок, і я спробував би використати інервацію чи чари польоту? Ця
непоінформованість, що ви її дозволили з незбагненних для мене причин, також
зіграла роль у цій катастрофі.

// 10508
//There was another silence. The Defense Professor’s eyes had narrowed, and there
//was a faintly puzzled look on his face, as though he had encountered some
//completely unfamiliar situation; and still the man spoke no word.
Запанувала тиша. Очі професора із захисту звузилися, і на його обличчі промайнуло
здивування, ніби він потрапив у якусь геть незнайому ситуацію. Та він все одно
не вимовив і слова.

// 10509
//“Well,” said the boy. His eyes had not wavered from the Defense Professor’s. “I
//certainly regret hurting you, Professor. But I do not think the situation calls
//for me to submit to you. I never really did understand the concept of apology,
//still less as it applies to a situation like this; if you have my regrets, but
//not my submission, does that count as saying sorry?”
-- Ну, -- сказав хлопець. Він не відводив погляду від очей професора із захисту.
-- Я безперечно шкодую, що завдав вам болю, професоре. Проте я не вважаю, що в
цій ситуації маю підкоритися вам. Я ніколи насправді не розумів концепції вибачення,
тим паче в такій ситуації. Якщо я висловлю жаль, проте не покору, чи вважатиметься
це вибаченням?

// 10510
//Again that cold, cold laugh, darker than the void between the stars.
І знову цей холодний-холодний сміх, темніший за порожнечу між зірками.

// 10511
//“I wouldn’t know,” said the Defense Professor, “I, too, never understood the
//concept of apology. That ploy would be futile between us, it seems, with both
//of us knowing it for a lie. Let us speak no more of it, then. Debts will be
//settled between us in time.”
-- Гадки не маю, -- сказав професор із захисту, -- я теж ніколи не розумів
концепцію вибачення. Видається, ця хитрість не має сенсу між нами, адже ми
обидва знаємо, що це брехня. Тож не згадуймо більше про це. Ми виплатимо борги
один одному у свій час.

// 10512
//There was silence for a time.
І знову тиша.

// 10513
//“By the way,” said the boy. “Hermione Granger would never have built Azkaban,
//no matter who was going to be put in it. And she’d die before she hurt an
//innocent. Just mentioning that, since you said before that all wizards are like
//You-Know-Who inside, and that’s just false as a point of simple fact. Would’ve
//realized it earlier if I hadn’t been,” the boy gave a brief grim smile,
//“stressed out.”
-- До речі, -- сказав хлопець, -- Герміона Ґрейнджер ніколи не побудувала б
Азкабан, хай кого б збиралися в ньому тримати. І вона б померла, проте не
нашкодила невинному. Просто хочу це зазначити, бо ви раніше сказали, ніби всі
чарівники всередині такі, як Відомо-Хто, а це просто хибне твердження. Збагнув
би це раніше, якби я не був, -- хлопець ненадовго похмуро всміхнувся, --
втомленим.

// 10514
//The Defense Professor’s eyes were half-lidded, his expression distant.
//“People’s insides are not always like their outsides, Mr. Potter. Perhaps she
//simply wishes others to think of her as a good girl. She cannot use the
//Patronus Charm -”
Очі професора із захисту були напівзаплющені, а вираз обличчя якимось далеким.

-- Всередині люди не завжди такі, як зовні, містере Поттер. Можливо, вона
просто хоче, щоб інші вважали її хорошою дівчинкою. Вона не може викликати чари
патронуса...

// 10515
//“Hah,” said the boy; his smile seemed realer now, warmer. “She’s having trouble
//for exactly the same reason I did. There’s enough light in her to destroy
//Dementors, I’m sure. She wouldn’t be able to __stop__ herself from
//destroying Dementors, even at the cost of her own life…” The boy trailed off,
//and then his voice resumed. “__I __might not be such a good person, maybe;
//but they do exist, and she’s one of them.”
-- Ха, -- сказав хлопець, і тепер його усмішка стала більш справжньою,
теплішою. -- У неї не виходить з тих саме причин, що й у мене були проблеми. Я
певен, у ній достатньо світла, щоб знищувати дементорів. Вона не змогла б
__зупинити__ себе від знищення дементорів, навіть якби це коштувало їй життя...
-- голос хлопця затихнув, а потім відновився. -- Мабуть, __я__ не така й
хороша людина, може бути. Проте хороші люди існують, і вона одна з них.

// 10516
//Dryly. “She is young, and to make a show of kindness costs her little.”
// hedrok: 063:11254
-- Вона молода, і показова доброта їй нічого не варта, -- сухо.

// 10517
//There was a pause at this. Then the boy said, “Professor, I have to ask, when
//you see something all dark and gloomy, doesn’t it ever occur to you to try and
//__improve__ it somehow? Like, yes, something goes terribly wrong in
//people’s heads that makes them think it’s great to torture criminals, but that
//doesn’t mean they’re truly evil inside; and maybe if you taught them the right
//things, showed them what they were doing wrong, you could change -”
Знову пауза. А тоді хлопець сказав:

-- Професоре, я маю запитати. Коли ви бачите щось таке темне й похмуре, вам
навіть на гадку не спадає, що можна спробувати й __поліпшити__ це якось? Ніби
так, щось в головах людей відбувається страшенно не так, і змушує їх вважати,
що катувати злочинців це класно, проте це не означає, що вони справді лихі
всередині. І, можливо, якщо навчити їх правильних речей, показати їм їхні
помилки, можна було б змінити...

// 10518
//Professor Quirrell laughed, then, and not with the emptiness of before. “Ah,
//Mr. Potter, sometimes I do forget how very young you are. Sooner you could
//change the color of the sky.” Another chuckle, this one colder. “And the reason
//it is easy for you to forgive such fools and think well of them, Mr. Potter, is
//that you yourself have not been sorely hurt. You will think less fondly of
//commonplace idiots after the first time their folly costs you something dear.
//Such as a hundred Galleons from your own pocket, perhaps, rather than the
//agonizing deaths of a hundred strangers.” The Defense Professor was smiling
//thinly. He took a pocket-watch out of his robes, looked at it. “Let us depart
//now, if there is nothing more to say between us.”
Професор Квірел засміявся, і вже не так порожньо, як раніше.

-- Ох, містере Поттер, інколи я забуваю, наскільки ви юні. Та легше змінити
колір неба, -- знову смішок, тепер холодніший. -- А причина того, що ви так
легко пробачаєте дурнів та добре про них думаєте, містере Поттер, полягає в
тому, що самі ви ще від них жодного разу глибоко не страждали. Ваше захоплення
звичайними ідіотами зникне першого ж разу, як їхня дурість коштуватиме вам
чогось цінного. На кшталт ста ґалеонів з вашої власної кишені, мабуть, а не
болісної смерті сотні незнайомців, -- професор із захисту тепер тонко
посміхався.  Він дістав годинник з мантії та поглянув на нього. -- Час іти,
якщо нам більше немає чого сказати один одному.

// 10519
//“You don’t have any questions about the impossible things I did to get us out
//of Azkaban?”
-- У вас немає питань щодо неможливих речей, що я зробив, щоб витягти нас з
Азкабану?

// 10520
//“No,” said the Defense Professor. “I believe I have solved most of them
//already. As for the rest, it is too rare that I find a person whom I cannot see
//through immediately, be they friend or foe. I shall unravel the puzzles about
//you for myself, in due time.”
-- Ні, -- сказав професор із захисту. -- Мені здається, я вже зрозумів
більшість з них. Щодо решти, надто зрідка я зустрічаю когось, кого не можу
побачити наскрізь одразу, друг це чи ворог. Я розвʼяжу ваші загадки самостійно
у свій час.

// 10521
//The Defense Professor shoved himself up, pushing back on the wall with both
//hands and rising to his feet, smoothly if too slowly. The boy, less gracefully,
//did the same.
Професор із захисту піднявся, відштовхнувись від стіни обома руками, підвівся
на ноги плавно, хоч і дещо повільно. Хлопець зробив те саме, хоч і менш
граційно.

// 10522
//And the boy blurted out the last most terrible question which he had earlier
//been unable to ask; as though to say it aloud would make it real, and as though
//it were not, already, vastly obvious.
А тоді хлопець випалив останнє й найжахливіше питання, що він його не міг поставити
раніше. Ніби якщо вимовити його вголос, то це стане дійсністю, хоча вже й
так було більш ніж очевидно, що так і є.

// 10523
//“Why am I not like the other children my own age?”
// hedrok: копія у 063:11334
-- Чому я не такий, як інші діти мого віку?

***

// 10524
//In a deserted side-road of Diagon Alley, where scraps of un-Vanished trash
//could be seen lodged into the edges of the brick street and the blank brick
//building-sides that surrounded it, along with scattered dirt and other signs of
//neglect, an ancient wizard and his phoenix Apparated into existence.
У безлюдному провулку алеї Діаґон, де містилися шматки нещезнутого сміття в
проміжках між цеглинами вулиці, а також вздовж цегляних будинків навколо,
де-не-де був бруд та інші ознаки занедбаності, явився в дійсність древній
чарівник та його фенікс.

// 10525
//The wizard was already reaching within his robes for his hourglass when, in
//habit, his eyes jumped to a random spot between the road and the wall, to
//memorize it -
Чарівник уже занурив у мантію руку, щоб скористатися пісочним годинником, коли,
за звичкою, кинув оком на випадкову точку між дорогою та стіною, щоб
запамʼятати її...

// 10526
//And the old wizard blinked in surprise; there was a scrap of parchment in that
//spot.
І він кліпнув від подиву: у тій точці був клаптик пергаменту.

// 10527
//A frown crossed Albus Dumbledore’s face as he took a step forward and took the
//crumpled scrap, unfolding it.
Похмурим стало обличчя Албуса Дамблдора, коли він наблизився, взяв зіжмаканий
клаптик, та розгорнув його.

// 10528
//On it was the single word “NO”, and nothing more.
На ньому було написане єдине слово "`НІ`" та більше нічого.

// 10529
//Slowly the wizard let it flutter from his fingers. Absently he reached down to
//the pavement, and picked up the nearest scrap of parchment, which looked
//remarkably similar to the one he had just taken; he touched it with his wand,
//and a moment later it was inscribed with the same word “NO”, in the same
//handwriting, which was his own.
Чарівник повільно випустив пергамент з рук. Він неуважно потягнувся до
тротуару рукою, взяв найближчий клаптик пергаменту, що був на диво схожий
на той, що він щойно випустив. Він доторкнувся до нього паличкою і за мить
на ньому було написано те ж слово "`НІ`", тим самим почерком, що був його
власним.

// 10530
//The old wizard had planned to go back three hours to when Harry Potter first
//arrived in Diagon Alley. He had already watched, upon his instruments, the boy
//leaving Hogwarts, and that could not be undone (his one attempt to fool his own
//instruments, and so control Time without altering its appearance to himself,
//had ended in sufficient disaster to convince him to never again try such
//trickery). He had hoped to retrieve the boy at the first possible moment after
//his arrival, and take him to another safe location, if not Hogwarts (for his
//instruments had not shown the boy’s return). But now -
Старий чарівник планував був повернутися на три години, коли Гаррі Поттер
тільки-но прибув до алеї Діаґон. Він уже бачив на своїх пристроях, що
хлопець покинув Гоґвортс, і не міг цьому запобігти (його єдина спроба обдурити
власні інструменти, і таким чином керувати часом, не змінивши його вигляду для
минулого себе, призвела була до достатньої катастрофи, щоб переконати його
ніколи більше не вдаватися до такого шахрайства). Він сподівався був забрати
хлопця першої ж миті після його прибуття, і забрати його в інше безпечне місце,
хай і не в Гоґвортс (адже його пристрої не повідомляли про повернення
хлопця). Проте тепер...

// 10531
//“A paradox if I retrieve him immediately after he arrives in Diagon Alley?”
//murmured the old wizard to himself. “Perhaps they did not set in motion their
//plan to rob Azkaban, until after they had confirmed his arrival here… or else…
//perhaps…”
-- Парадокс, якщо я заберу його одразу по прибутті на алею Діаґон? --
пробурмотів сам собі старий чарівник. -- Можливо, вони не починали втілювати
свій план пограбування Азкабану, доки не підтвердили його прибуття сюди...
або... можливо...

***

// 10532
//Painted concrete, hard floor and distant ceilings, two figures facing off
//across from each other. One entity who wore the shape of a man in his late
//thirties and already balding, and another mind that wore the form of an
//eleven-year-old boy with a scar upon his forehead. Ice and shadow, pale blue
//light.
Пофарбований бетон, тверда підлога й далекі стелі, дві фігури стоять обличчям
одна до одної. Одна сутність, що мала подобу людини за тридцять, що вже лисіла,
та інший розум у подобі одинадцятирічного хлопця зі шрамом на чолі. Лід та тінь,
бліде блакитне світло.

// 10533
//“I don’t know,” said the man.
-- Я не знаю, -- сказав чоловік.

// 10534
//The boy just looked at him. And then said, “Oh, really?”
Хлопець лише поглянув на нього та сказав.

-- Ой, та ну?

// 10535
//“Truly,” said the man. “I know nothing, and of my guesses I will not speak. Yet
//I will say this much -”
// hedrok: I will say this much - копія у 063:11336
-- Щира правда, -- сказав чоловік. -- Я нічого не знаю, а свої здогади не
висловлюватиму. Втім, я скажу ось що...
