// 19237
//== Shut Up and Do The Impossible, Pt 2
== Розділ 115. Замовкни й зроби неможливе, ч.2

// 19238
//__This is a double post. If you have not read Ch. 114, go back and read
//it now.__

// 19239
//Something like a fugue state had come over Harry’s mind. The absolute state had
//partially worn off him, partially stayed with him. Elements of his mind were
//numb, maybe deliberately numbed by some part that was smart enough to predict
//what would happen otherwise. What he’d just done -
// absolute state - гадаю, йдеться про 114:19167
Розум Гаррі був мов у тумані. Частково його зосередженість розвіялася, та
частково все ж лишилася. Частини його розуму заніміли, певно, їх навмисно
приспала якась достатньо розумна частина, яка знала, що станеться інакше. Те,
що він щойно накоїв...

// 19240
//The thought was shut off, making space for an awareness of other things.
Ця думка спинилася, треба було приділити увагу іншим речам.

// 19241
//Harry was standing in the middle of a haphazard graveyard, tombstones scattered
//without order.
Гаррі стояв посеред невпорядкованого цвинтаря, надгробки були розкидані то тут,
то там.

// 19242
//By moonlight and starlight, it could be seen that black robes littered the
//ground, surrounded by textures that didn’t match the surrounding graveyard
//earth, wetness tinged red in the moonlight. Some heads had come loose from the
//surrounding hoods of the robes, revealing hair that was long or short, dark or
//bright, which was all that could be seen beneath the moon. The silver masks
//stayed on, making all the hair originate in skulls instead of human faces -
Під світлом місяця й зірок виднілися чорні мантії, що лежали, мов сміття, їх
обрамляли червоні калюжі. З якихось голів спали каптури, відкривши в когось
довге, в когось коротке волосся, в когось темне, в когось світле -- це все, що
було видно під місяцем. Срібні маски трималися, тож, видавалося, що волосся
належало черепам, а не людським обличчям...

// 19243
//The thought was shut off, making space for awareness of other things.
Ця думка спинилася, треба було приділити увагу іншим речам.

// 19244
//A girl in a red-trimmed Hogwarts uniform slept upon an altar. Near the altar,
//Harry’s things lay in a heap.
Дівчина в Гоґвортській формі з червоною облямівкою спала на вівтарі. Поряд з
вівтарем купою лежали речі Гаррі.

// 19245
//Upon the ground lay a too-tall pale man of inhuman face, blood pouring from the
//stumps of his wrists.
На землі лежало надто високе тіло чоловіка з нелюдським обличчям, кров лилася з
обрубків його рук.

// 19246
//__As soon as the Dark Lord Voldemort awakens, he will destroy everything
//you love. Dumbledore is no longer there to stop him.__
__Щойно прокинеться темний лорд Волдеморт, він знищить усе, що ти любиш.
Дамблдора більше немає, щоб його спинити.__

// 19247
//__He cannot be imprisoned, for he can abandon his body at any time.__
__Його неможливо увʼязнити, бо він може покинути тіло в будь-яку мить.__

// 19248
//__He cannot be killed permanently, not without destroying more than a
//hundred horcruxes, one of which is the Pioneer plaque.__
__Його неможливо вбити назавжди, спочатку треба знищити більш ніж сотню
горокраксів, один з яких -- пластина на Піонері.__

// 19249
//__Materials: One wand, you are allowed to point it and speak this time.__
__Дано: Одна паличка, цього разу тобі дозволено розмовляти.__

// 19250
//__You have five minutes.__
__У тебе пʼять хвилин.__

// 19251
//__Solve.__
__Розвʼязуй.__

// 19252
//Harry stumbled toward the altar, knelt at its side, and picked up his pouch.
Гаррі пошкутильгав до вівтаря, сів коло нього на коліна та взяв свій капшучок.

// 19253
//He walked toward where Voldemort lay.
Він підійшов до Волдеморта.

// 19254
//The sense of apprehension had diminished, after Voldemort had been hexed
//unconscious. Now, as Harry approached, it rose to a terrifying height, flaring
//also into pain in his scar.
Відчуття тривоги майже зникло, коли Волдеморт знепритомнів. Тепер, коли Гаррі
наблизився, тривога була страшенною, викликала біль у шрамі.

// 19255
//Harry ignored the inner shriek. That had been the last memory of Tom Riddle
//seared into Harry’s brain, the last cognitive pattern to be transferred over
//into the infant baby before Tom Riddle had exploded: a sense of mounting horror
//and dismay associated with the resonance that had spun out of control. Harry
//knew the meaning of it now, that sense of apprehension, and that made it easier
//to disregard. He’d guessed that the effect of the resonance mostly hit the
//caster, with power proportional to the caster’s power, and the bet had paid
//off.
Гаррі проігнорував внутрішній скрик. Це був просто останній спогад Тома Редла,
що його було перенесено в мозок Гаррі, останній когнітивний шаблон, переданий
малюкові перед тим, як Том Редл вибухнув: відчуття дедалі більшого жаху й
розгубленості, що асоціюється з резонансом магії, який вийшов з-під контролю.
Тепер Гаррі знав значення цього відчуття тривоги, і тому його легше було
ігнорувати. Він припустив був, що ефект резонансу більше бʼє по чаклуну, що
накладав закляття з силою, що пропорційна могутності чаклуна, і він не прогадав.

// 19256
//Harry looked upon Voldemort’s body, and breathed deeply - through his mouth,
//because coppery smells Harry was not thinking about were coming in through his
//nose.
Гаррі поглянув на тіло Волдеморта й глибоко вдихнув -- через рот, бо запах міді,
про який Гаррі не думав, бив по носі.

// 19257
//Harry knelt by Voldemort’s side, took out his medical kit from his pouch, and
//placed a self-tightening tourniquet around the body’s left wrist, then another
//tourniquet about the right.
Гаррі сів на коліна поряд з Волдемортом, дістав з капшучка набір цілителя й
наклав джгут, що сам затягнувся навколо лівого запʼястку, тоді інший, навколо
правого.

// 19258
//It felt __wrong,__ showing Voldemort that concern. Some part of Harry was
//aware, in the back of his mind, that some number of people had just had
//something extremely bad happen to them. What would have been balance, what
//would have been justice, was if Voldemort had suffered the same fate without an
//instant’s more hesitation. What Harry was doing now felt like Batman showing
//more concern for the Joker than for the Joker’s victims; it felt like a comic
//book where the writers wrung their hands endlessly about the morality of
//killing the Big Named Villains while innocents went on dying in the background.
//To show more solicitousness for the head villain than his minions, to pay
//__more attention __to his fate than the fates of his lower-status
//followers, was a flaw in human nature.
Це здавалося __неправильним__ -- виказувати Волдемортові турботу. Якась частина
Гаррі усвідомлювала, що з чималою кількістю людей щойно сталося дещо вкрай
погане. Балансом, справедливістю було б, якби Волдеморта спіткала та ж доля, без
жодних зволікань. Гаррі поточні його дії нагадували про те, як
Бетмен більше турбувався про Джокера, ніж про жертв Джокера. Він почувався, мов
він у коміксі, і автори без кінця викручують собі руки й розповідають про те, як
це аморально -- вбивати Головних Злодіїв з Імʼям, хоча на фоні помирали невинні.
Більш допомагати головному лиходію, ніж його посіпакам, приділяти __більше
уваги__ його долі, ніж долям його послідовників нижчого статусу -- це вада
людської природи.

// 19259
//So it felt wrong when Harry rose up from beside the body, the tourniquets
//having tightened upon Voldemort’s wrists; it felt like Harry was doing
//something ethically monstrous.
Тож коли Гаррі підвівся, він відчував, що вчиняє неправильно: джгути стягували
запʼястки Волдеморта, і це видавалося йому етично жахливим.

// 19260
//Even though any sane strategic thinking said that Voldemort’s body __must
//not__ die. The soul he’d created for himself had to be anchored in this brain,
//it mustn’t be allowed to float free.
Хоча, згідно будь-якого розумного стратегічного розрахунку, тіло Волдеморта
__мало жити__. Душа, яку він сам для себе створив, була привʼязана до цього
мозку. Їй не можна було дозволити вільно ширяти.

// 19261
//Harry stepped back, back from Voldemort’s unconscious body, breathing deeply
//through his mouth. He went to the pile of his things, to put on his robes and
//other items, starting with placing the Time-Turner around his throat once more,
//readying his own escape and return if that was required…
Гаррі відступив на крок від непритомного тіла Волдеморта й глибоко вдихнув через
рот. Він підійшов до купи своїх речей, одягнув мантію й решту речей, спочатку
натягнув на шию часоворот, щоб підготувати план втечі про всяк випадок...

// 19262
//More than a hundred horcruxes.
Більше за сотню горокраксів.

// 19263
//That had been insane, there wasn’t any other word for it, a sign of Voldemort’s
//damaged thinking about death. A Muggle security expert would have called it
//fence-post security, like building a fence-post over a hundred metres high in
//the middle of the desert. Only a very obliging attacker would try to climb the
//fence-post. Anyone sensible would just walk around the fence-post, and making
//the fence-post even higher wouldn’t stop that.
Це було божевілля, іншого слова для цього не було, яскрава ознака, що Волдеморт
не був здатен спокійно обмірковувати смерть. Маґлівський експерт з безпеки
назвав би це системою захисної огорожі, ніби хтось побудував паркан вище за сто
метрів посеред пустелі. Лише вкрай любʼязний нападник спробує перелізти через
огорожу. Будь-хто натомість обійде її, і збільшення висоти тут нічим не
зарадить.

// 19264
//Once you forgot to be scared of how impossible the problem was supposed to be,
//it wasn’t even difficult, not by comparison to the last one.
Якщо припинити боятися того, наскільки неможлива ця задача, то вона припиняла
бути навіть складною, особливо порівняно з попередньою.

// 19265
//Neville’s parents, for example, had been Crucioed into permanent insanity. Two
//hundred advanced horcruxes wouldn’t prevent that insanity, they would all just
//echo the same damaged mind.
Наприклад, батьків Невіла "`Круціатусом`" довели до божевілля. Двісті просунутих
горокраксів не запобіжать цьому, а лише зберігатимуть цей пошкоджений розум.

// 19266
//It would be an ethically justified use of the Cruciatus Curse, if that were the
//only way to stop Voldemort permanently. It would be justice, balance, it would
//show that the Joker’s life wasn’t worth more than his meanest henchman…
Це було б етично виправдене використання прокляття "`Круціатус`", якби це був
єдиний спосіб спинити Волдеморта назавжди. Це було б справедливістю, балансом,
це показало б, що життя Джокера було варте не більшого, ніж життя його
найзлішого посіпаки...

// 19267
//All Harry needed to do was cast the Patronus Charm, send it to… Alastor Moody?…
//and tell him to come here. Well, no, it was a pretty good guess the Patronus
//Charm wouldn’t work if it was cast with __that__ intent. Maybe just
//resolve to tell Moody that, and use his Time-Turner once he was out of range of
//Voldemort’s wards.
Гаррі треба було лише викликати патронуса й відправити його до... Аластора
Муді?.. й сказати йому прийти сюди. Ну, ні, навряд чи чари патронуса спрацюють з
__таким__ наміром. Можливо, достатньо твердо вирішити сказати це Муді й
використати часоворот, коли він буде за межами дії оберегів Волдеморта.

// 19268
//And then Voldemort could be Crucioed into permanent insanity.
І тоді Волдеморта можна буде круціювати до постійного божевілля.

// 19269
//It wasn’t even the least merciful fate. That would have been throwing
//Voldemort’s wand into the pit at Azkaban, if the wand stayed connected to
//Voldemort’s life and magic no matter where his ghost tried to flee.
Це навіть не було найжахливішою долею. Найжахливішим варіантом було кинути
паличку Волдеморта в яму Азкабану, якщо паличка була повʼязана з життям та
магією Волдеморта, хай куди спробує сховатися його привид.

// 19270
//Harry turned to face where Voldemort lay. He walked forward, and continued to
//control his breathing, ignoring the burning feeling in his throat. Some part of
//him knew that Voldemort was __also__ Professor Quirrell, even though his
//body now was different. Even though the shift of personality had been perfect
//and that meant that Professor Quirrell had been just another mask…
Гаррі поглянув туди, де лежав Волдеморт. Він підійшов уперед, контролюючи
дихання, ігноруючи пекучі відчуття в горлі. Якась його частина знала, що
Волдеморт __також був__ професором Квірелом, хоч тіло в нього й було тепер
іншим. Незважаючи на те, що зміна особистості була бездоганною, і відповідно,
професор Квірел -- це була лише чергова маска...

// 19271
//Though Voldemort hadn’t planned to kill Harry painfully. Hadn’t thought to
//strike Harry with his followers’ Cruciatus, when Harry was being annoying
//before. That meant something, when your opponent was Voldemort. Maybe he’d had
//some remaining shred of fellow-feeling for the other Tom Riddle after all.
Хоча Волдеморт не планував був убити Гаррі в якийсь болючий спосіб. Не наказав
був комусь зі своїх послідовників катувати його. Це щось важило, коли твоїм
опонентом був Волдеморт. Можливо, зрештою, він мав якусь дрібку дружніх почуттів
до іншого Тома Редла.

// 19272
//…it would be wrong to take that into account.
...було б неправильно брати це до уваги.

// 19273
//Wouldn’t it?
Правда?

// 19274
//Harry looked back up at the stars. Here below the atmosphere the stars
//twinkled, they were embedded in the false dome of the night sky, stretched out
//across the wash of the Milky Way that glowed like a long ribbon, as if they
//were all close enough that you could fly up to them on a broomstick and touch
//them.
Гаррі поглянув на зірки. Тут, під атмосферою, зірки мерехтіли, вони були
частиною уявного куполу нічного неба, частиною річки Чумацького шляху, що сяяв,
ніби довга стрічка. Видавалося, це все поряд, і можна до них підлетіти на мітлі
й торкнутися їх.

// 19275
//What would they want him to do now at this juncture, the children’s children’s
//children?
Які б його дії на цьому роздоріжжі схвалили діти дітей дітей?

// 19276
//The answer to that also felt obvious, if it wasn’t just the part of Harry that
//still cared about Professor Quirrell doing the real talking.
Відповідь видавалася очевидною, якщо, звісно, вона насправді не надходила від
тієї частини Гаррі, що досі турбувалася про професора Квірела.

// 19277
//Harry had needed to do the thing he’d done, it __had__ prevented greater
//evils, Harry couldn’t have stopped Voldemort if the Death Eaters had fired
//first. But that thing Harry had done wasn’t something that could be balanced by
//a not-necessary tragedy happening to one more sentient being, even if that
//being was Voldemort. It would just be one more element of the sorrows of
//ancient Earth so long ago.
Гаррі мусив був зробити те, що він уже зробив, це __запобігло__ більшому лиху.
Гаррі не зміг би спинити Волдеморта, якби смертежери в нього почали стріляти.
Але те, що вдіяв Гаррі, не можна було збалансувати зайвою смертю ще однієї
розумної істоти, навіть якщо цією істотою був Волдеморт. Ця смерть стала б
просто додатковим елементом жахіть такої древньої Землі.

// 19278
//The past was past. You did what you had to do, and you didn’t do one scrap of
//harm more than that. Not even to balance things out, and make it all
//symmetrical.
Минуле було в минулому. Ти робив, що маєш, і не спричиняв ані на дрібку більше
шкоди, ніж мусив. Навіть для балансу, навіть для симетрії.

// 19279
//The children’s children’s children wouldn’t want Voldemort to die, even if his
//minions had. They wouldn’t want Voldemort to hurt, if it didn’t accomplish
//anything compared to him not hurting.
Діти дітей дітей не захотіли б смерті Волдеморта, навіть якщо його послідовники
померли. Вони б не хотіли, щоб Волдеморт страждав, якщо це не призводило до
якогось результату, якого неможливо було досягти без страждань.

// 19280
//Harry breathed deeply, and let go of - not his hate - not quite his hate - he
//hadn’t been able to hate his creator even at the very end - but even so, Harry
//let go of __something__. Of the sense that he __ought__ to hate
//Voldemort, that it was a hate he was obligated to feel, for the endless list of
//crimes that Voldemort had committed for no good reason, not even his own
//happiness…
Гаррі глибоко вдихнув і позбувся... ні, не ненависті, не зовсім ненависті, йому
так і не вдалося почати ненавидіти свого творця аж до самого кінця... але все
одно він позбувся __чогось__. Відчуття того, що він __має__ ненавидіти
Волдеморта, того, що це його обовʼязок -- ненавидіти Волдеморта за нескінченний
список скоєних ним злочинів без жодної причини -- скоєних навіть не заради
власного щастя...

// 19281
//__It’s all right,__ the stars whispered down at him. __It’s all
//right not to hate him. It doesn’t make you a bad person.__
__Усе гаразд__, шепотіли йому зірки. __Усе гаразд, ти не маєш його ненавидіти.
Ти не стаєш через це поганою людиною.__

// 19282
//In the end, there was only one option he would take, and since Harry already
//knew that, there was no point agonizing about it. Whether it was the best
//option, only time would tell.
Зрештою, Гаррі вибере лише один варіант, і позаяк Гаррі про це вже знав, не було
жодного сенсу страждати з цього приводу. Чи найкращий цей варіант, може показати
лише час.

// 19283
//Harry breathed deeply, building up the magic inside himself. The spell he was
//going to cast didn’t need to be __precise,__ but it was still one of the
//most powerful spells he’d mastered.
Гаррі глибоко вдихнув й почав накопичувати в собі магію. Закляття, що він ним
скористається, не мало бути __точним__, але це все одно буде одне з
наймогутніших заклять, на які він здатен.

// 19284
//Harry thought again of how unjust it was that Voldemort could not die with his
//followers, felt the slight trace of coldness in his blood that came with
//thoughts of ruthlessness. And then Harry let it go, let it all drain away
//beneath the starlight, because his dark side had never been anything except an
//inherited pattern of cognition, just one more bad habit of thinking to break.
Гаррі знову подумав, як це несправедливо, що Волдеморт не може померти зі своїми
послідовниками, відчув певний холод, що приходив до його крові разом з
жорстокими думками. І Гаррі позбувся цього холоду, під зірками дав йому
зникнути, бо його темна сторона завжди була нічим іншим, як успадкованою схемою
мислення, просто поганою звичкою, яку треба кинути.

// 19285
//Instead Harry looked at Hermione’s breathing form atop the altar, and let the
//tears finally start from his eyes. What would become of Hermione now, what path
//she would choose after this, Harry couldn’t guess; but she would be
//__there__ to have a choice, their friendship wouldn’t have destroyed her
//existence. He hadn’t realised how shaky his hope had been, until he’d noticed
//how surprised he’d been after the hope had come true. Sometimes things did go
//better than expected.
Тоді Гаррі поглянув на Герміону, що дихала, лежачи на вівтарі, і з його очей
нарешті полилися сльози. Ким тепер стане Герміона, який шлях вона обере, Гаррі
гадки не мав.  Але вона __зможе__ зробити вибір, принаймні, їхня дружба не
знищила саме її існування. Гаррі й не усвідомлював був, якою примарною була його
надія, доки не відчув, яким здивованим він був, коли ця надія здійснилася.
Подеколи щось трапляється ліпше, ніж очікуєш.

// 19286
//And Harry took that thought, too, and put it into the magic he was building.
Цю думку Гаррі теж вклав у магію, яку він накопичував.

// 19287
//The power he was storing up was vibrating in him, like his whole body was part
//of his wand, either Harry’s eyes were blurring or there was a luminous white
//quiver running over the holly. And Harry thought the shape of the spell he
//would cast, he didn’t have much fine control but the pattern he needed was
//simple, it just needed to include -
Сила, яку він вибудовував, почала тремтіти, ніби все його тіло стало частиною
палички. Чи то в очах Гаррі почало все розпливатися, чи то вздовж гостролиста
виблискувало біле сяйво. Гаррі зосередився на тому, яким саме має бути закляття.
Він ще не вмів його добре контролювати, та правило було доволі простим, воно
мало просто включати...

// 19288
//__Everything, forget everything, Tom Riddle, Professor Quirrell, forget
//your whole life, forget your entire episodic memory, forget the disappointment
//and the bitterness and the wrong decisions, forget Voldemort -__
__Усе, забудь усе: Тома Редла, професора Квірела, забудь усе своє життя, всю
епізодичну памʼять, забудь розчарування, гіркоту, неправильні рішення, забудь
Волдеморта...__

// 19289
//And at the last moment before Harry cast the spell, he had one final thought, a
//note of grace -
І в останню мить перед тим, як Гаррі наклав закляття, він додав одну останню
думку, доторк доброчесності...

// 19290
//__But if you ever had any truly happy memories, not hurting people or
//laughing at their pain, but the warm feeling of helping someone or being
//helped, there won’t be many, maybe just when you were a child, but if you had
//any truly happy memories then keep only those -__
__Та якщо в тебе є якісь справді щасливі спогади: не про знущання з інших людей
чи сміх щодо болю, а тепле відчуття від допомоги комусь, чи від того, що тобі
допомогли. Їх буде мало, можливо лише з дитинства, та якщо в тебе є щиро щасливі
спогади, збережи лише їх...__

// 19291
//Something bright in him unfolded at the decision, knowing he’d made the right
//choice, and Harry pushed that too into his wand -
Щось світле розгорнулося в ньому від цього рішення, знання, що це правильний
вибір, і Гаррі вклав це все у паличку...

// 19292
//**“OBLIVIATE!”**
-- **ЗУБУТТЯТУС!**

// 19293
//And it all poured out of Harry into the spell.
І все це вилилося в закляття Гаррі.

// 19294
//Harry fell over on his side, dropping his wand, gritted screams coming from his
//throat, his hands going helplessly to his scar, even as the sudden blast of
//pain in his head began to fade. Only dimly did his eyes see that the air was
//filled with glowing snowflakes, drifting motes of silver light like tiny specks
//of Patronus Charm.
Гаррі впав на бік, кинув паличку, з його горла виривалися скрики, руки
безконтрольно кинулися до шраму, хоча раптовий вибух болю вже почав ущухати. Він
ледве бачив, що повітря навколо сповнене сяйливими сніжинками, легкими
порошинками срібного світла, що скидалися на крихітні іскорки чарів патронуса.

// 19295
//Only a moment the silver light lasted, and then it was gone.
Це срібне світло трималося лише мить, а тоді зникло.

// 19296
//Professor Quirrell was gone.
Зникнув професор Квірел.

// 19297
//Nothing left but a remnant.
Був тільки залишок.

// 19298
//And that spirit, what remained of it, wouldn’t be so different now from Harry’s
//own.
І цей дух -- те, що від нього лишилося, -- не так вже й відрізнявся від
Гарріного.

// 19299
//The Prophecy was complete.
Пророцтво здійснилося.

// 19300
//They had each remade the other in their own image.
Кожен з них переробив іншого на власну подобу.

// 19301
//Harry started sobbing, then, from where he was curled up in the dirt.
Тоді Гаррі почав схлипувати, скрутившись у бруді.

// 19302
//He cried for a while.
Деякий час він плакав.

// 19303
//And then eventually Harry staggered to his feet and picked up his wand again,
//because this day’s work wasn’t quite done.
Та потім Гаррі підвівся на ноги й знову взяв паличку в руки, бо робота на
сьогодні ще не була завершена.

***

// 19304
//Harry laid his wand directly on Voldemort’s wrist-stump; it made his scar throb
//with an ongoing pain, but neither of them exploded.
Гаррі приклав паличку до обрубленого запʼястку Волдеморта. У шрамі запульсував
біль, та ніхто з них не вибухнув.

// 19305
//And Harry began a Transfiguration.
І Гаррі почав трансфігурацію.

// 19306
//Slowly - though faster than Harry had been able to Transfigure Hermione’s body,
//last time - the stunned form of the snake-man changed, reshaped itself. As the
//Transfiguration progressed, especially as the snake-man’s head began to turn
//glassy and shrunken, the pain in Harry’s scar faded.
Повільно -- хоча швидше, ніж минулого разу Гаррі трансфігурував тіло Герміони,
-- непритомне тіло змієлюдини змінювалося, перетворювалося. Під час
трансфігурації, особливо коли його голова стала скляною й зменшувалася, біль у
шрамі Гаррі вщухав.

// 19307
//It would be a spell to maintain whether Harry was waking or sleeping; and
//later, when Harry was older and more powerful and maybe had some help, he would
//un-Transfigure the mindwiped Tom Riddle and heal his body with the power of the
//Stone. __After__ future-Harry had figured out what to do with an
//almost-completely-amnesiac wizard who still had some bad habits of thought and
//some highly negative emotional patterns - a dark side, as ‘twere - plus a great
//deal of declarative and procedural knowledge about powerful magic. Harry had
//tried his best __not__ to Obliviate that part, because he might need it,
//someday.
Це закляття Гаррі підтримуватиме і вдень і вночі. Пізніше, коли Гаррі стане
старшим та могутнішим, можливо, з чиєюсь допомогою, він скасує трансфігурацію
Тома Редла з промитими мізками, вилікує його тіло за допомогою сили Каменя.
__Після__ того, як майбутній Гаррі вигадає, що робити з майже повністю
втратившим памʼять чарівником, що все одно мав погані схеми думок, а також вкрай
негативні емоційні шаблони -- дистильована темна сторона -- та ще й чимало
декларативних та процедурних знань щодо могутньої магії. Гаррі доклав усіх
зусиль, щоб __не__ забуттятити цю частину, бо колись ця магія може бути йому
конче потрібна.

// 19308
//And meanwhile, just like magic hadn’t defined a Transfigured unicorn as dead
//for purposes of setting off wards, Voldemort’s horcruxes wouldn’t define a
//Transfigured Voldemort as dead and try to bring him back.
Тим часом, як магія не визначила трансфігурованого єдинорога як мертвого й не
збурила обереги, так само горокракси Волдеморта не визначать трансфігурованого
Волдеморта як мертвого й не намагатимуться його повернути.

// 19309
//That was the hope, anyway.
Ну, принаймні на це Гаррі сподівався.

// 19310
//Harry’s scar twinged one last time when the steel ring went on his pinky
//finger, holding the tiny green emerald in contact with his skin. Then his scar
//subsided, and did not hurt again.
Шрам Гаррі востаннє дав про себе знати, коли він одягнув сталевий перстень з
крихітним зеленим смарагдом, і той торкнувся його шкіри. Тоді шрам заспокоївся й
більше не болів.

// 19311
//An upthrust rock served Harry for a chair, when he staggered over it and sat
//down motionless, resting after a fashion, shoving back the exhaustion that
//threatened the corners of his mind. __It was not done, there was more to
//do.__
Гаррі скористався якимось високим каменем як стільцем -- Гаррі похитнувся й сів на
нього, деякий час він не рухався, такий собі відпочинок. Він стримував
виснаження, що чигало на закутках розуму. __Ще не все, треба ще дещо зробити.__

// 19312
//Harry took another deep breath, still inhaling through his mouth, said
//__“Lumos,”__ and looked around the graveyard.
Гаррі знову глибоко вдихнув ротом, сказав "`__Лумос__`" та роззирнувся довкола.

// 19313
//Black robes and severed skull masks, surrounded by pools of blood -
Чорні мантії та відірвані черепи-маски в калюжах крові...

// 19314
//Hermione Granger, asleep on an altar.
Герміона Ґрейнджер спить на вівтарі.

// 19315
//Voldemort’s empty robes and bloody hands, lying where the Dark Lord had fallen.
Порожня мантія Волдеморта та його криваві руки лежать поряд з місцем, де пав
Темний Лорд.

// 19316
//Quirinus Quirrell with his shredded robes, fallen in a heap where the Killing
//Curse had stricken him.
Квірін Квірел у пошматований мантії, лежить грудою там, де в нього влучило
смертельне прокляття.

// 19317
//Harry imagined someone else looking at this scene, trying to understand it, and
//shook his head, because that wouldn’t do, it wouldn’t do at all.
Гаррі уявив, як хтось дивиться на цю сцену, намагається її збагнути, і похитав
головою, бо так діла не буде, зовсім не буде.

// 19318
//Then Harry shoved himself up from his rock, grimacing as his mind, if not body,
//protested. He hadn’t been bloodied or beaten much today, but somehow Harry’s
//body was managing to feel like all the stress had hit it directly.
Гаррі змусив себе підвестися з каменюки, скривившись, бо якщо його тіло й не
дуже протестувало, протестував розум. Не те щоб він втратив кров чи його били
сьогодні, але чомусь тіло Гаррі почувалося так, ніби весь стрес напряму на нього
впливав.

// 19319
//Harry staggered over toward where Voldemort had fallen, and picked up
//Voldemort’s left hand from where it lay upon the ground.
Гаррі дошкутильгав до місця, де пав був Волдеморт, підняв лівицю Волдеморта з
землі.

// 19320
//Even in just the left hand, you could see the faint trace of snake’s scales; it
//was very distinctively Voldemort. That was good.
Хоч це й була просто ліва рука, видно було невеличкі шматки луски змії. Це явно
був Волдеморт. І це було добре.

// 19321
//Harry went to the altar where the sleeping Hermione lay, and gently placed the
//detached hand around Hermione’s neck, carefully moving the fingers to clutch at
//her throat. It was hard to do, Hermione seemed so peaceful and innocent when
//she was sleeping, and Voldemort’s severed hand seemed so ugly; Harry bluntly
//overrode whatever part of his mind was thinking that, since it made no sense in
//context.
Гаррі підійшов до вівтаря, де спала Герміона, обережно приклав руку до шиї
Герміони та старанно розташував пальці так, ніби ті вхопили її за горло. Зробити
це було складно -- Герміона видавалася такою мирною та невинною уві сні, а
відірвана рука Волдеморта була такою огидною. Гаррі просто проігнорував ту
частину свого розуму, що згенерувала цю думку, бо в ній не було сенсу в цьому
контексті.

// 19322
//A few weak Severing Charms served to mess up the almost perfectly fine cut the
//nanofiber had made, which was critical; it would not do to have the hand-stump
//look like the neck-stumps. The multiple __Diffindos__ scattered small bits
//of Voldemort-wrist all over Hermione’s shirt, which, Harry had to remind
//himself, was also part of the plan.
Кілька слабких різальних чар пошкодили ідеальний розріз, що його зробили були
нанотрубки. Це було критично -- не можна було, щоб краї обрубків рук були такими
самими, як краї ший. Ці кілька "`__Діфіндо__`" розкидали невеличкі шматочки
запʼястків Волдеморта по сорочці Герміони, що, як Гаррі довелося нагадати собі,
було частиною плану.

// 19323
//Harry repeated this with the right hand, arranging it symmetrically with the
//left.
Гаррі повторив операцію з правицею, розташувавши її симетрично до лівої руки.

// 19324
//Harry used __Inflammare__ to singe Voldemort’s robes where they lay, and
//then arranged the singed clothing around Hermione.
Гаррі використав "`__Інфламмаре__`", щоб обсмалити мантію Волдеморта, а тоді
поклав підпалений одяг довкола Герміони.

// 19325
//Voldemort’s gun, and his wand, went into Harry’s pouch. Harry placed the Stone
//of Permanency in an ordinary pocket, he wasn’t sure what the Stone might do to
//his pouch.
Пістолет та паличку Волдеморта Гаррі поклав до капшучка. Камінь Сталості він
поклав до звичайної кишені, бо не знав, що той може зробити з капшучком.

// 19326
//The heap of things from inside Quirrell’s robe, also near the altar, yielded
//the wand that the Defense Professor had used when he was being Quirrell. Harry
//went to where Quirrell lay, and straightened out the body as best he could, and
//put Quirrell’s wand into his hand. Tears predictably came to Harry’s eyes, and
//Harry wiped them away on his sleeve.
З купи речей, що були в мантії Квірела, і яка також була поряд з вівтарем, Гаррі
взяв паличку, що її професор із захисту використовував був, коли був Квірелом.
Гаррі підійшов до Квірела, як міг випрямив його тіло та поклав паличку йому до
руки. Сльози очікувано виступили на очах Гаррі, і він витер їх рукавом.

// 19327
//Harry took another deep breath, still inhaling through his mouth, said
//__“Lumos”__ again, and once more looked around the graveyard.
І знову Гаррі глибоко вдихнув, досі ротом, знову сказав "`__Лумос__`" та знову
оглянув цвинтар.

// 19328
//Black robes, severed skull masks, and Hermione Granger lying on an altar with
//Voldemort’s severed hands clutched around her throat, and Voldemort’s singed
//clothing scattered around her. Quirinus Quirrell lay dead with his clothes torn
//and shredded, his wand in his right hand.
Чорні мантії, відірвані маски, Герміона Ґрейнджер лежить на вівтарі, відірвані
руки Волдеморта схопили її за горло, а підпалений одяг Волдеморта розкидано
довкола. Квірін Квірел лежить мертвий, його одяг розідраний, а його паличка в
правиці.

// 19329
//That would do.
Це зійде.

// 19330
//There remained the problem of calling attention to it.
Лишалася одна проблема -- як звернути на це все увагу.

// 19331
//Harry was very nearly out of magic at this point. But he still had enough left
//to Transfigure a leaf into the deflated form of a three-meter weather balloon.
Гаррі вже майже виснажив усю свою магію. Та її ще вистачило, щоб трансфігурувати
листок на спущений триметровий аеростат.

// 19332
//Harry’s pouch produced a bottle of oxyacetelene, and a stick of dynamite, and a
//spool of fuse-cord. __Be prepared, that’s the Boy Scout’s marching song,
//be prepared for a life that includes mountain trolls and who knows what else…__
З капшучка Гаррі дістав пляшку з киснем та ацетиленом, шашку динаміту й котушку
детонатору. __Будь готовим! Це похідна пісня бойскаутів! Будь готовим до життя,
де трапляються гірські тролі та хтозна що ще...__

// 19333
//Harry inflated the weather balloon with the oxyacetelene. That would produce a
//very sharp overpressure when it detonated, maybe as loud as a sonic boom.
// hedrok @sonic boom
Гаррі наповнив аеростат сумішшю кисню й ацетилену. Коли він здетонує, виникне
вкрай сильний тиск, можливо, це спричинить навіть звуковий вибух.

// 19334
//He attached the stick of dynamite - it was overkill, for detonation, but it
//would do.
Він прикріпив шашку динаміту -- це було забагато для детонації, але це спрацює.

// 19335
//He attached a 60-second fuse to the stick of dynamite, but did not light it
//yet.
Він прикріпив детонатор на шістдесят секунд до шашки динаміту, та ще не запалив
його.

// 19336
//Harry put on his Cloak of Invisibility, that had been among the piles by the
//sacrificial altar.
Гаррі одягнув Плащ невидимості, що лежав був серед куп коло жертовного вівтаря.

// 19337
//He obtained his broomstick from his pouch, and mounted it.
Він дістав з капшучка мітлу та сів на неї.

// 19338
//Harry cast a Quieting Charm around Hermione Granger - it wouldn’t stop
//__all__ the noise, not even close, and it wasn’t like she’d be permanently
//hurt if her eardrums burst, but it still seemed polite.
Гаррі створив навколо Герміони Ґрейнджер чари тиші -- це не спинить __увесь__
шум, зовсім ні, та й навіть якщо їй розірве барабанні перетинки, це буде
ненадовго, але Гаррі видавалося, що цього вимагає чемність.

// 19339
//And then that was it. The Quieting Charm had done it. Harry was drained of
//magic for at least the next hour.
От і все, чари тиші були останньою краплею. В Гаррі не лишилося магії принаймні
на годину.

// 19340
//Harry mounted the broomstick, slowly rising into the air, lifting the weather
//balloon filled with oxyacetelene with him. The castle Hogwarts came into view,
//distantly gleaming in moonlight a few kilometers away, as Harry rose above the
//trees; and Harry did his best to figure the distance, and the angle as it would
//be seen from Hogwarts.
// hedrok @Eliezer І знову mounted?
Гаррі повільно здійнявся в небо на мітлі, він піднімав аеростат. Коли Гаррі
піднявся над деревами, він побачив замок Гоґвортсу вдалечині, той слабко сяяв у
місячному промінні в кількох кілометрах. Гаррі прикинув відстань та кут до цього
місця від Гоґвортсу.

// 19341
//When he had risen high above the forest, Harry used a lighter to ignite the
//fuse on the dynamite attached to the weather balloon full of oxyacetelene. Then
//Harry spun the broomstick and darted away - though not directly toward the
//castle, that might take him too close to the route past-Harry and Professor
//Quirrell had traversed, it wouldn’t do to have the Professor sense another
//Harry -
Тоді він здійнявся високо над лісом та за допомогою запальнички підпалив
детонатор, що був прикріплений до динаміту й аеростату, що був наповнений киснем
та ацетиленом. Тоді Гаррі розвернув мітлу й кинувся геть -- хоча не прямо до
замку, бо тоді він міг надто наблизитися до маршруту, яким ішли минулий Гаррі та
Квірел, а не годилося, щоб професор відчув ще одного Гаррі...

// 19342
//Harry felt a leaden stab of sadness, and refused it.
Гаррі охопив напад суму, але Гаррі відмовився від нього.

// 19343
//__Thirty-one one-thousand, thirty-two one-thousand, thirty-three
//one-thousand…__
__Тридцять один тисяча, тридцять два тисяча, тридцять три тисяча...__

// 19344
//When Harry reached forty, not wanting to take chances with his own eardrums, he
//glanced at his wristwatch, noting the exact time, and spun his Time-Turner
//once.
Коли Гаррі долічив до сорока, бо він не хотів ризикувати власними барабанними
перетинками, він поглянув на годинник, запамʼятав точний час та обернув
часоворот один раз.

// 19345
//__Ch. 116 will post **March 4th, 2015** __at__ **12PM Pacific (8PM
//UTC)**__.__
